%!PS-Adobe-3.0 EPSF-3.0
%%Title: out.fig
%%Creator: fig2dev Version 3.2.6a
%%CreationDate: 2018-05-04 15:28:01
%%BoundingBox: 0 0 327 151
%Magnification: 1.0000
%%EndComments
%%BeginProlog
/$F2psDict 200 dict def
$F2psDict begin
$F2psDict /mtrx matrix put
/col-1 {0 setgray} bind def
/col0 {0.000 0.000 0.000 srgb} bind def
/col7 {1.000 1.000 1.000 srgb} bind def
/col32 {0.533 0.533 0.533 srgb} bind def

end

/cp {closepath} bind def
/ef {eofill} bind def
/gr {grestore} bind def
/gs {gsave} bind def
/sa {save} bind def
/rs {restore} bind def
/l {lineto} bind def
/m {moveto} bind def
/rm {rmoveto} bind def
/n {newpath} bind def
/s {stroke} bind def
/sh {show} bind def
/slc {setlinecap} bind def
/slj {setlinejoin} bind def
/slw {setlinewidth} bind def
/srgb {setrgbcolor} bind def
/rot {rotate} bind def
/sc {scale} bind def
/sd {setdash} bind def
/ff {findfont} bind def
/sf {setfont} bind def
/scf {scalefont} bind def
/sw {stringwidth} bind def
/tr {translate} bind def
/tnt {dup dup currentrgbcolor
  4 -2 roll dup 1 exch sub 3 -1 roll mul add
  4 -2 roll dup 1 exch sub 3 -1 roll mul add
  4 -2 roll dup 1 exch sub 3 -1 roll mul add srgb}
  bind def
/shd {dup dup currentrgbcolor 4 -2 roll mul 4 -2 roll mul
  4 -2 roll mul srgb} bind def
 /DrawEllipse {
	/endangle exch def
	/startangle exch def
	/yrad exch def
	/xrad exch def
	/y exch def
	/x exch def
	/savematrix mtrx currentmatrix def
	x y tr xrad yrad sc 0 0 1 startangle endangle arc
	closepath
	savematrix setmatrix
	} def

/$F2psBegin {$F2psDict begin /$F2psEnteredState save def} def
/$F2psEnd {$F2psEnteredState restore end} def

/pageheader {
save
newpath 0 151 moveto 0 0 lineto 327 0 lineto 327 151 lineto closepath clip newpath
-182.1 348.9 translate
1 -1 scale
$F2psBegin
10 setmiterlimit
0 slj 0 slc
 0.06000 0.06000 sc
} bind def
/pagefooter {
$F2psEnd
restore
} bind def
%%EndProlog
pageheader
%
% Fig objects follow
%
% 
% here starts figure with depth 60
% Polyline
0 slj
0 slc
0.000 slw
n 3450 3300 m 8450 3300 l 8450 3600 l 3450 3600 l
 cp gs col7 1.00 shd ef gr 
% here ends figure;
% 
% here starts figure with depth 50
% Polyline
0 slj
0 slc
15.000 slw
 [15 90] 90 sd
n 3450 3450 m
 8450 3450 l gs col0 s gr  [] 0 sd
% Polyline
 [15 90] 90 sd
n 3450 4050 m
 8450 4050 l gs col0 s gr  [] 0 sd
% Polyline
 [15 90] 90 sd
n 3450 4650 m
 8450 4650 l gs col0 s gr  [] 0 sd
% Polyline
 [15 90] 90 sd
n 3450 5250 m
 8450 5250 l gs col0 s gr  [] 0 sd
% Polyline
2 slj
30.000 slw
n 3950 3450 m 3950 3451 l 3950 3453 l 3950 3457 l 3950 3464 l 3950 3473 l
 3950 3485 l 3950 3500 l 3950 3518 l 3950 3538 l 3950 3561 l
 3950 3587 l 3950 3614 l 3950 3644 l 3950 3675 l 3950 3708 l
 3950 3742 l 3950 3777 l 3950 3813 l 3950 3852 l 3950 3891 l
 3950 3933 l 3950 3976 l 3950 4022 l 3950 4071 l 3950 4122 l
 3950 4175 l 3950 4232 l 3950 4290 l 3950 4350 l 3950 4410 l
 3950 4468 l 3950 4525 l 3950 4578 l 3950 4629 l 3950 4678 l
 3950 4724 l 3950 4767 l 3950 4809 l 3950 4848 l 3950 4887 l
 3950 4923 l 3950 4958 l 3950 4992 l 3950 5025 l 3950 5056 l
 3950 5086 l 3950 5113 l 3950 5139 l 3950 5162 l 3950 5182 l
 3950 5200 l 3950 5215 l 3950 5227 l 3950 5236 l 3950 5243 l
 3950 5247 l 3950 5249 l
 3950 5250 l gs col0 s gr 
% Polyline
0 slj
n 3950 4170 m
 4450 4170 l gs col0 s gr 
% Polyline
2 slj
n 4450 3450 m 4450 3452 l 4450 3456 l 4450 3464 l 4450 3475 l 4450 3489 l
 4450 3506 l 4450 3525 l 4450 3546 l 4450 3568 l 4450 3592 l
 4450 3618 l 4450 3647 l 4450 3678 l 4450 3713 l 4450 3750 l
 4450 3787 l 4450 3822 l 4450 3853 l 4450 3882 l 4450 3908 l
 4450 3932 l 4450 3954 l 4450 3975 l 4450 3994 l 4450 4011 l
 4450 4025 l 4450 4036 l 4450 4044 l 4450 4048 l
 4450 4050 l gs col0 s gr 
% Polyline
0 slj
n 4450 3750 m
 6950 3750 l gs col0 s gr 
% Polyline
2 slj
n 7950 3450 m 7950 3452 l 7950 3456 l 7950 3464 l 7950 3475 l 7950 3489 l
 7950 3506 l 7950 3525 l 7950 3546 l 7950 3568 l 7950 3592 l
 7950 3618 l 7950 3647 l 7950 3678 l 7950 3713 l 7950 3750 l
 7950 3787 l 7950 3822 l 7950 3853 l 7950 3882 l 7950 3908 l
 7950 3932 l 7950 3954 l 7950 3975 l 7950 3994 l 7950 4011 l
 7950 4025 l 7950 4036 l 7950 4044 l 7950 4048 l
 7950 4050 l gs col0 s gr 
% Polyline
0 slj
n 7950 3750 m
 8450 3750 l gs col0 s gr 
% Polyline
2 slj
n 4950 4050 m 4950 4052 l 4950 4056 l 4950 4064 l 4950 4075 l 4950 4089 l
 4950 4106 l 4950 4125 l 4950 4146 l 4950 4168 l 4950 4192 l
 4950 4218 l 4950 4247 l 4950 4278 l 4950 4313 l 4950 4350 l
 4950 4387 l 4950 4422 l 4950 4453 l 4950 4482 l 4950 4508 l
 4950 4532 l 4950 4554 l 4950 4575 l 4950 4594 l 4950 4611 l
 4950 4625 l 4950 4636 l 4950 4644 l 4950 4648 l
 4950 4650 l gs col0 s gr 
% Polyline
0 slj
n 4950 4350 m
 7450 4350 l gs col0 s gr 
% Polyline
2 slj
n 5450 4650 m 5450 4652 l 5450 4656 l 5450 4664 l 5450 4675 l 5450 4689 l
 5450 4706 l 5450 4725 l 5450 4746 l 5450 4768 l 5450 4792 l
 5450 4818 l 5450 4847 l 5450 4878 l 5450 4913 l 5450 4950 l
 5450 4987 l 5450 5022 l 5450 5053 l 5450 5082 l 5450 5108 l
 5450 5132 l 5450 5154 l 5450 5175 l 5450 5194 l 5450 5211 l
 5450 5225 l 5450 5236 l 5450 5244 l 5450 5248 l
 5450 5250 l gs col0 s gr 
% Polyline
0 slj
n 5450 4950 m
 5950 4950 l gs col0 s gr 
% Polyline
7.500 slw
gs  clippath
8457 5543 m 8457 5557 l 8314 5580 l 8314 5520 l cp
eoclip
n 3450 5550 m
 8450 5550 l gs col0 s gr gr

% arrowhead
n 8314 5580 m 8434 5550 l 8314 5520 l 8314 5580 l  cp gs 0.00 setgray ef gr  col0 s
% Polyline
n 3450 5550 m
 3450 5580 l gs col0 s gr 
% Polyline
n 3950 5550 m
 3950 5580 l gs col0 s gr 
% Polyline
n 4450 5550 m
 4450 5580 l gs col0 s gr 
% Polyline
n 4950 5550 m
 4950 5580 l gs col0 s gr 
% Polyline
n 5450 5550 m
 5450 5580 l gs col0 s gr 
% Polyline
n 5950 5550 m
 5950 5580 l gs col0 s gr 
% Polyline
n 6450 5550 m
 6450 5580 l gs col0 s gr 
% Polyline
n 6950 5550 m
 6950 5580 l gs col0 s gr 
% Polyline
n 7450 5550 m
 7450 5580 l gs col0 s gr 
% Polyline
n 7950 5550 m
 7950 5580 l gs col0 s gr 
/Times-Roman ff 450.00 scf sf
3050 3575 m
gs 1 -1 sc (u) col0 sh gr
/Times-Roman ff 450.00 scf sf
3050 4175 m
gs 1 -1 sc (x) col0 sh gr
/Times-Roman ff 450.00 scf sf
3050 4775 m
gs 1 -1 sc (v) col0 sh gr
/Times-Roman ff 450.00 scf sf
3050 5375 m
gs 1 -1 sc (y) col0 sh gr
/Times-Roman ff 300.00 scf sf
3450 5800 m
gs 1 -1 sc (0) dup sw pop 2 div neg 0 rm  col0 sh gr
/Times-Roman ff 300.00 scf sf
3950 5800 m
gs 1 -1 sc (1) dup sw pop 2 div neg 0 rm  col0 sh gr
/Times-Roman ff 300.00 scf sf
4450 5800 m
gs 1 -1 sc (2) dup sw pop 2 div neg 0 rm  col0 sh gr
/Times-Roman ff 300.00 scf sf
4950 5800 m
gs 1 -1 sc (3) dup sw pop 2 div neg 0 rm  col0 sh gr
/Times-Roman ff 300.00 scf sf
5450 5800 m
gs 1 -1 sc (4) dup sw pop 2 div neg 0 rm  col0 sh gr
/Times-Roman ff 300.00 scf sf
5950 5800 m
gs 1 -1 sc (5) dup sw pop 2 div neg 0 rm  col0 sh gr
/Times-Roman ff 300.00 scf sf
6450 5800 m
gs 1 -1 sc (6) dup sw pop 2 div neg 0 rm  col0 sh gr
/Times-Roman ff 300.00 scf sf
6950 5800 m
gs 1 -1 sc (7) dup sw pop 2 div neg 0 rm  col0 sh gr
/Times-Roman ff 300.00 scf sf
7450 5800 m
gs 1 -1 sc (8) dup sw pop 2 div neg 0 rm  col0 sh gr
/Times-Roman ff 300.00 scf sf
8450 5800 m
gs 1 -1 sc (time) dup sw pop neg 0 rm  col0 sh gr
% Ellipse
30.000 slw
n 3950 3450 45 45 0 360 DrawEllipse gs 0.00 setgray ef gr gs col0 s gr

% Ellipse
n 3950 5250 45 45 0 360 DrawEllipse gs 0.00 setgray ef gr gs col0 s gr

% Ellipse
n 4450 3450 45 45 0 360 DrawEllipse gs 0.00 setgray ef gr gs col0 s gr

% Ellipse
n 4450 4050 45 45 0 360 DrawEllipse gs 0.00 setgray ef gr gs col0 s gr

% Ellipse
n 7950 3450 45 45 0 360 DrawEllipse gs 0.00 setgray ef gr gs col0 s gr

% Ellipse
n 7950 4050 45 45 0 360 DrawEllipse gs 0.00 setgray ef gr gs col0 s gr

% Ellipse
n 4950 4050 45 45 0 360 DrawEllipse gs 0.00 setgray ef gr gs col0 s gr

% Ellipse
n 4950 4650 45 45 0 360 DrawEllipse gs 0.00 setgray ef gr gs col0 s gr

% Ellipse
n 5450 4650 45 45 0 360 DrawEllipse gs 0.00 setgray ef gr gs col0 s gr

% Ellipse
n 5450 5250 45 45 0 360 DrawEllipse gs 0.00 setgray ef gr gs col0 s gr

% here ends figure;
pagefooter
showpage
%%Trailer
%EOF
