%!PS-Adobe-3.0 EPSF-3.0
%%Title: /home/tiphaine/Documents/movielens/tex/img/feature_importance_toy2.eps
%%Creator: matplotlib version 2.0.0, http://matplotlib.org/
%%CreationDate: Fri May  4 16:20:48 2018
%%Orientation: portrait
%%BoundingBox: -126 72 738 720
%%EndComments
%%BeginProlog
/mpldict 8 dict def
mpldict begin
/m { moveto } bind def
/l { lineto } bind def
/r { rlineto } bind def
/c { curveto } bind def
/cl { closepath } bind def
/box {
m
1 index 0 r
0 exch r
neg 0 r
cl
} bind def
/clipbox {
box
clip
newpath
} bind def
%!PS-Adobe-3.0 Resource-Font
%%Title: DejaVu Sans
%%Copyright: Copyright (c) 2003 by Bitstream, Inc. All Rights Reserved. Copyright (c) 2006 by Tavmjong Bah. All Rights Reserved. DejaVu changes are in public domain 
%%Creator: Converted from TrueType to type 3 by PPR
25 dict begin
/_d{bind def}bind def
/_m{moveto}_d
/_l{lineto}_d
/_cl{closepath eofill}_d
/_c{curveto}_d
/_sc{7 -1 roll{setcachedevice}{pop pop pop pop pop pop}ifelse}_d
/_e{exec}_d
/FontName /DejaVuSans def
/PaintType 0 def
/FontMatrix[.001 0 0 .001 0 0]def
/FontBBox[-1021 -463 1793 1232]def
/FontType 3 def
/Encoding [ /hyphen /period /zero /one /two /three /four /five /six /seven /eight /nine /A /C /D /F /H /M /N /O /R /S /T /W /underscore /a /b /c /d /e /f /g /h /i /l /m /n /o /q /r /s /t /u /v /x /y ] def
/FontInfo 10 dict dup begin
/FamilyName (DejaVu Sans) def
/FullName (DejaVu Sans) def
/Notice (Copyright (c) 2003 by Bitstream, Inc. All Rights Reserved. Copyright (c) 2006 by Tavmjong Bah. All Rights Reserved. DejaVu changes are in public domain ) def
/Weight (Book) def
/Version (Version 2.35) def
/ItalicAngle 0.0 def
/isFixedPitch false def
/UnderlinePosition -130 def
/UnderlineThickness 90 def
end readonly def
/CharStrings 46 dict dup begin
/hyphen{361 0 49 234 312 314 _sc
49 314 _m
312 314 _l
312 234 _l
49 234 _l
49 314 _l
_cl}_d
/period{318 0 107 0 210 124 _sc
107 124 _m
210 124 _l
210 0 _l
107 0 _l
107 124 _l
_cl}_d
/zero{636 0 66 -13 570 742 _sc
318 664 _m
267 664 229 639 203 589 _c
177 539 165 464 165 364 _c
165 264 177 189 203 139 _c
229 89 267 64 318 64 _c
369 64 407 89 433 139 _c
458 189 471 264 471 364 _c
471 464 458 539 433 589 _c
407 639 369 664 318 664 _c
318 742 _m
399 742 461 709 505 645 _c
548 580 570 486 570 364 _c
570 241 548 147 505 83 _c
461 19 399 -13 318 -13 _c
236 -13 173 19 130 83 _c
87 147 66 241 66 364 _c
66 486 87 580 130 645 _c
173 709 236 742 318 742 _c
_cl}_d
/one{636 0 110 0 544 729 _sc
124 83 _m
285 83 _l
285 639 _l
110 604 _l
110 694 _l
284 729 _l
383 729 _l
383 83 _l
544 83 _l
544 0 _l
124 0 _l
124 83 _l
_cl}_d
/two{{636 0 73 0 536 742 _sc
192 83 _m
536 83 _l
536 0 _l
73 0 _l
73 83 _l
110 121 161 173 226 239 _c
290 304 331 346 348 365 _c
380 400 402 430 414 455 _c
426 479 433 504 433 528 _c
433 566 419 598 392 622 _c
365 646 330 659 286 659 _c
255 659 222 653 188 643 _c
154 632 117 616 78 594 _c
78 694 _l
118 710 155 722 189 730 _c
223 738 255 742 284 742 _c
}_e{359 742 419 723 464 685 _c
509 647 532 597 532 534 _c
532 504 526 475 515 449 _c
504 422 484 390 454 354 _c
446 344 420 317 376 272 _c
332 227 271 164 192 83 _c
_cl}_e}_d
/three{{636 0 76 -13 556 742 _sc
406 393 _m
453 383 490 362 516 330 _c
542 298 556 258 556 212 _c
556 140 531 84 482 45 _c
432 6 362 -13 271 -13 _c
240 -13 208 -10 176 -4 _c
144 1 110 10 76 22 _c
76 117 _l
103 101 133 89 166 81 _c
198 73 232 69 268 69 _c
330 69 377 81 409 105 _c
441 129 458 165 458 212 _c
458 254 443 288 413 312 _c
383 336 341 349 287 349 _c
}_e{202 349 _l
202 430 _l
291 430 _l
339 430 376 439 402 459 _c
428 478 441 506 441 543 _c
441 580 427 609 401 629 _c
374 649 336 659 287 659 _c
260 659 231 656 200 650 _c
169 644 135 635 98 623 _c
98 711 _l
135 721 170 729 203 734 _c
235 739 266 742 296 742 _c
370 742 429 725 473 691 _c
517 657 539 611 539 553 _c
539 513 527 479 504 451 _c
481 423 448 403 406 393 _c
_cl}_e}_d
/four{636 0 49 0 580 729 _sc
378 643 _m
129 254 _l
378 254 _l
378 643 _l
352 729 _m
476 729 _l
476 254 _l
580 254 _l
580 172 _l
476 172 _l
476 0 _l
378 0 _l
378 172 _l
49 172 _l
49 267 _l
352 729 _l
_cl}_d
/five{{636 0 77 -13 549 729 _sc
108 729 _m
495 729 _l
495 646 _l
198 646 _l
198 467 _l
212 472 227 476 241 478 _c
255 480 270 482 284 482 _c
365 482 429 459 477 415 _c
525 370 549 310 549 234 _c
549 155 524 94 475 51 _c
426 8 357 -13 269 -13 _c
238 -13 207 -10 175 -6 _c
143 -1 111 6 77 17 _c
77 116 _l
106 100 136 88 168 80 _c
199 72 232 69 267 69 _c
}_e{323 69 368 83 401 113 _c
433 143 450 183 450 234 _c
450 284 433 324 401 354 _c
368 384 323 399 267 399 _c
241 399 214 396 188 390 _c
162 384 135 375 108 363 _c
108 729 _l
_cl}_e}_d
/six{{636 0 70 -13 573 742 _sc
330 404 _m
286 404 251 388 225 358 _c
199 328 186 286 186 234 _c
186 181 199 139 225 109 _c
251 79 286 64 330 64 _c
374 64 409 79 435 109 _c
461 139 474 181 474 234 _c
474 286 461 328 435 358 _c
409 388 374 404 330 404 _c
526 713 _m
526 623 _l
501 635 476 644 451 650 _c
425 656 400 659 376 659 _c
310 659 260 637 226 593 _c
}_e{192 549 172 482 168 394 _c
187 422 211 444 240 459 _c
269 474 301 482 336 482 _c
409 482 467 459 509 415 _c
551 371 573 310 573 234 _c
573 159 550 99 506 54 _c
462 9 403 -13 330 -13 _c
246 -13 181 19 137 83 _c
92 147 70 241 70 364 _c
70 479 97 571 152 639 _c
206 707 280 742 372 742 _c
396 742 421 739 447 735 _c
472 730 498 723 526 713 _c
_cl}_e}_d
/seven{636 0 82 0 551 729 _sc
82 729 _m
551 729 _l
551 687 _l
286 0 _l
183 0 _l
432 646 _l
82 646 _l
82 729 _l
_cl}_d
/eight{{636 0 68 -13 568 742 _sc
318 346 _m
271 346 234 333 207 308 _c
180 283 167 249 167 205 _c
167 161 180 126 207 101 _c
234 76 271 64 318 64 _c
364 64 401 76 428 102 _c
455 127 469 161 469 205 _c
469 249 455 283 429 308 _c
402 333 365 346 318 346 _c
219 388 _m
177 398 144 418 120 447 _c
96 476 85 511 85 553 _c
85 611 105 657 147 691 _c
188 725 245 742 318 742 _c
}_e{390 742 447 725 489 691 _c
530 657 551 611 551 553 _c
551 511 539 476 515 447 _c
491 418 459 398 417 388 _c
464 377 501 355 528 323 _c
554 291 568 251 568 205 _c
568 134 546 80 503 43 _c
459 5 398 -13 318 -13 _c
237 -13 175 5 132 43 _c
89 80 68 134 68 205 _c
68 251 81 291 108 323 _c
134 355 171 377 219 388 _c
183 544 _m
183 506 194 476 218 455 _c
}_e{242 434 275 424 318 424 _c
360 424 393 434 417 455 _c
441 476 453 506 453 544 _c
453 582 441 611 417 632 _c
393 653 360 664 318 664 _c
275 664 242 653 218 632 _c
194 611 183 582 183 544 _c
_cl}_e}_d
/nine{{636 0 63 -13 566 742 _sc
110 15 _m
110 105 _l
134 93 159 84 185 78 _c
210 72 235 69 260 69 _c
324 69 374 90 408 134 _c
442 178 462 244 468 334 _c
448 306 424 284 396 269 _c
367 254 335 247 300 247 _c
226 247 168 269 126 313 _c
84 357 63 417 63 494 _c
63 568 85 628 129 674 _c
173 719 232 742 306 742 _c
390 742 455 709 499 645 _c
543 580 566 486 566 364 _c
}_e{566 248 538 157 484 89 _c
429 21 356 -13 264 -13 _c
239 -13 214 -10 189 -6 _c
163 -2 137 5 110 15 _c
306 324 _m
350 324 385 339 411 369 _c
437 399 450 441 450 494 _c
450 546 437 588 411 618 _c
385 648 350 664 306 664 _c
262 664 227 648 201 618 _c
175 588 162 546 162 494 _c
162 441 175 399 201 369 _c
227 339 262 324 306 324 _c
_cl}_e}_d
/A{684 0 8 0 676 729 _sc
342 632 _m
208 269 _l
476 269 _l
342 632 _l
286 729 _m
398 729 _l
676 0 _l
573 0 _l
507 187 _l
178 187 _l
112 0 _l
8 0 _l
286 729 _l
_cl}_d
/C{{698 0 56 -13 644 742 _sc
644 673 _m
644 569 _l
610 599 575 622 537 638 _c
499 653 460 661 418 661 _c
334 661 270 635 226 584 _c
182 533 160 460 160 364 _c
160 268 182 194 226 143 _c
270 92 334 67 418 67 _c
460 67 499 74 537 90 _c
575 105 610 128 644 159 _c
644 56 _l
609 32 572 15 534 4 _c
496 -7 455 -13 412 -13 _c
302 -13 215 20 151 87 _c
}_e{87 154 56 246 56 364 _c
56 481 87 573 151 641 _c
215 708 302 742 412 742 _c
456 742 497 736 535 725 _c
573 713 610 696 644 673 _c
_cl}_e}_d
/D{770 0 98 0 711 729 _sc
197 648 _m
197 81 _l
316 81 _l
416 81 490 103 537 149 _c
583 195 607 267 607 365 _c
607 463 583 534 537 580 _c
490 625 416 648 316 648 _c
197 648 _l
98 729 _m
301 729 _l
442 729 546 699 612 641 _c
678 582 711 490 711 365 _c
711 239 677 147 611 88 _c
545 29 441 0 301 0 _c
98 0 _l
98 729 _l
_cl}_d
/F{575 0 98 0 517 729 _sc
98 729 _m
517 729 _l
517 646 _l
197 646 _l
197 431 _l
486 431 _l
486 348 _l
197 348 _l
197 0 _l
98 0 _l
98 729 _l
_cl}_d
/H{752 0 98 0 654 729 _sc
98 729 _m
197 729 _l
197 430 _l
555 430 _l
555 729 _l
654 729 _l
654 0 _l
555 0 _l
555 347 _l
197 347 _l
197 0 _l
98 0 _l
98 729 _l
_cl}_d
/M{863 0 98 0 765 729 _sc
98 729 _m
245 729 _l
431 233 _l
618 729 _l
765 729 _l
765 0 _l
669 0 _l
669 640 _l
481 140 _l
382 140 _l
194 640 _l
194 0 _l
98 0 _l
98 729 _l
_cl}_d
/N{748 0 98 0 650 729 _sc
98 729 _m
231 729 _l
554 119 _l
554 729 _l
650 729 _l
650 0 _l
517 0 _l
194 610 _l
194 0 _l
98 0 _l
98 729 _l
_cl}_d
/O{787 0 56 -13 731 742 _sc
394 662 _m
322 662 265 635 223 582 _c
181 528 160 456 160 364 _c
160 272 181 199 223 146 _c
265 92 322 66 394 66 _c
465 66 522 92 564 146 _c
606 199 627 272 627 364 _c
627 456 606 528 564 582 _c
522 635 465 662 394 662 _c
394 742 _m
496 742 577 707 639 639 _c
700 571 731 479 731 364 _c
731 248 700 157 639 89 _c
577 21 496 -13 394 -13 _c
291 -13 209 21 148 89 _c
86 157 56 248 56 364 _c
56 479 86 571 148 639 _c
209 707 291 742 394 742 _c
_cl}_d
/R{{695 0 98 0 666 729 _sc
444 342 _m
465 334 486 319 506 296 _c
526 272 546 240 566 199 _c
666 0 _l
560 0 _l
467 187 _l
443 235 419 268 397 284 _c
374 300 343 308 304 308 _c
197 308 _l
197 0 _l
98 0 _l
98 729 _l
321 729 _l
404 729 466 711 507 677 _c
548 642 569 589 569 519 _c
569 473 558 434 537 404 _c
515 374 484 353 444 342 _c
197 648 _m
197 389 _l
321 389 _l
}_e{368 389 404 400 428 422 _c
452 444 465 476 465 519 _c
465 561 452 593 428 615 _c
404 637 368 648 321 648 _c
197 648 _l
_cl}_e}_d
/S{{635 0 66 -13 579 742 _sc
535 705 _m
535 609 _l
497 627 462 640 429 649 _c
395 657 363 662 333 662 _c
279 662 237 651 208 631 _c
179 610 165 580 165 542 _c
165 510 174 485 194 469 _c
213 452 250 439 304 429 _c
364 417 _l
437 403 491 378 526 343 _c
561 307 579 260 579 201 _c
579 130 555 77 508 41 _c
460 5 391 -13 300 -13 _c
265 -13 228 -9 189 -2 _c
}_e{150 5 110 16 69 32 _c
69 134 _l
109 111 148 94 186 83 _c
224 71 262 66 300 66 _c
356 66 399 77 430 99 _c
460 121 476 152 476 194 _c
476 230 465 258 443 278 _c
421 298 385 313 335 323 _c
275 335 _l
201 349 148 372 115 404 _c
82 435 66 478 66 534 _c
66 598 88 649 134 686 _c
179 723 242 742 322 742 _c
356 742 390 739 426 733 _c
461 727 497 717 535 705 _c
}_e{_cl}_e}_d
/T{611 0 -2 0 614 729 _sc
-2 729 _m
614 729 _l
614 646 _l
355 646 _l
355 0 _l
256 0 _l
256 646 _l
-2 646 _l
-2 729 _l
_cl}_d
/W{989 0 33 0 956 729 _sc
33 729 _m
133 729 _l
286 113 _l
439 729 _l
550 729 _l
703 113 _l
856 729 _l
956 729 _l
773 0 _l
649 0 _l
495 633 _l
340 0 _l
216 0 _l
33 729 _l
_cl}_d
/underscore{500 0 -9 -235 510 -165 _sc
510 -165 _m
510 -235 _l
-9 -235 _l
-9 -165 _l
510 -165 _l
_cl}_d
/a{{613 0 60 -13 522 560 _sc
343 275 _m
270 275 220 266 192 250 _c
164 233 150 205 150 165 _c
150 133 160 107 181 89 _c
202 70 231 61 267 61 _c
317 61 357 78 387 114 _c
417 149 432 196 432 255 _c
432 275 _l
343 275 _l
522 312 _m
522 0 _l
432 0 _l
432 83 _l
411 49 385 25 355 10 _c
325 -5 287 -13 243 -13 _c
187 -13 142 2 109 33 _c
76 64 60 106 60 159 _c
}_e{60 220 80 266 122 298 _c
163 329 224 345 306 345 _c
432 345 _l
432 354 _l
432 395 418 427 391 450 _c
364 472 326 484 277 484 _c
245 484 215 480 185 472 _c
155 464 127 453 100 439 _c
100 522 _l
132 534 164 544 195 550 _c
226 556 256 560 286 560 _c
365 560 424 539 463 498 _c
502 457 522 395 522 312 _c
_cl}_e}_d
/b{{635 0 91 -13 580 760 _sc
487 273 _m
487 339 473 390 446 428 _c
418 466 381 485 334 485 _c
286 485 249 466 222 428 _c
194 390 181 339 181 273 _c
181 207 194 155 222 117 _c
249 79 286 61 334 61 _c
381 61 418 79 446 117 _c
473 155 487 207 487 273 _c
181 464 _m
199 496 223 520 252 536 _c
281 552 316 560 356 560 _c
422 560 476 533 518 481 _c
559 428 580 359 580 273 _c
}_e{580 187 559 117 518 65 _c
476 13 422 -13 356 -13 _c
316 -13 281 -5 252 10 _c
223 25 199 49 181 82 _c
181 0 _l
91 0 _l
91 760 _l
181 760 _l
181 464 _l
_cl}_e}_d
/c{{550 0 55 -13 488 560 _sc
488 526 _m
488 442 _l
462 456 437 466 411 473 _c
385 480 360 484 334 484 _c
276 484 230 465 198 428 _c
166 391 150 339 150 273 _c
150 206 166 154 198 117 _c
230 80 276 62 334 62 _c
360 62 385 65 411 72 _c
437 79 462 90 488 104 _c
488 21 _l
462 9 436 0 410 -5 _c
383 -10 354 -13 324 -13 _c
242 -13 176 12 128 64 _c
}_e{79 115 55 185 55 273 _c
55 362 79 432 128 483 _c
177 534 244 560 330 560 _c
358 560 385 557 411 551 _c
437 545 463 537 488 526 _c
_cl}_e}_d
/d{{635 0 55 -13 544 760 _sc
454 464 _m
454 760 _l
544 760 _l
544 0 _l
454 0 _l
454 82 _l
435 49 411 25 382 10 _c
353 -5 319 -13 279 -13 _c
213 -13 159 13 117 65 _c
75 117 55 187 55 273 _c
55 359 75 428 117 481 _c
159 533 213 560 279 560 _c
319 560 353 552 382 536 _c
411 520 435 496 454 464 _c
148 273 _m
148 207 161 155 188 117 _c
215 79 253 61 301 61 _c
}_e{348 61 385 79 413 117 _c
440 155 454 207 454 273 _c
454 339 440 390 413 428 _c
385 466 348 485 301 485 _c
253 485 215 466 188 428 _c
161 390 148 339 148 273 _c
_cl}_e}_d
/e{{615 0 55 -13 562 560 _sc
562 296 _m
562 252 _l
149 252 _l
153 190 171 142 205 110 _c
238 78 284 62 344 62 _c
378 62 412 66 444 74 _c
476 82 509 95 541 113 _c
541 28 _l
509 14 476 3 442 -3 _c
408 -9 373 -13 339 -13 _c
251 -13 182 12 131 62 _c
80 112 55 181 55 268 _c
55 357 79 428 127 481 _c
175 533 241 560 323 560 _c
397 560 455 536 498 489 _c
}_e{540 441 562 377 562 296 _c
472 322 _m
471 371 457 410 431 440 _c
404 469 368 484 324 484 _c
274 484 234 469 204 441 _c
174 413 156 373 152 322 _c
472 322 _l
_cl}_e}_d
/f{352 0 23 0 371 760 _sc
371 760 _m
371 685 _l
285 685 _l
253 685 230 678 218 665 _c
205 652 199 629 199 595 _c
199 547 _l
347 547 _l
347 477 _l
199 477 _l
199 0 _l
109 0 _l
109 477 _l
23 477 _l
23 547 _l
109 547 _l
109 585 _l
109 645 123 690 151 718 _c
179 746 224 760 286 760 _c
371 760 _l
_cl}_d
/g{{635 0 55 -207 544 560 _sc
454 280 _m
454 344 440 395 414 431 _c
387 467 349 485 301 485 _c
253 485 215 467 188 431 _c
161 395 148 344 148 280 _c
148 215 161 165 188 129 _c
215 93 253 75 301 75 _c
349 75 387 93 414 129 _c
440 165 454 215 454 280 _c
544 68 _m
544 -24 523 -93 482 -139 _c
440 -184 377 -207 292 -207 _c
260 -207 231 -204 203 -200 _c
175 -195 147 -188 121 -178 _c
}_e{121 -91 _l
147 -105 173 -115 199 -122 _c
225 -129 251 -133 278 -133 _c
336 -133 380 -117 410 -87 _c
439 -56 454 -10 454 52 _c
454 96 _l
435 64 411 40 382 24 _c
353 8 319 0 279 0 _c
211 0 157 25 116 76 _c
75 127 55 195 55 280 _c
55 364 75 432 116 483 _c
157 534 211 560 279 560 _c
319 560 353 552 382 536 _c
411 520 435 496 454 464 _c
454 547 _l
544 547 _l
}_e{544 68 _l
_cl}_e}_d
/h{634 0 91 0 549 760 _sc
549 330 _m
549 0 _l
459 0 _l
459 327 _l
459 379 448 417 428 443 _c
408 469 378 482 338 482 _c
289 482 251 466 223 435 _c
195 404 181 362 181 309 _c
181 0 _l
91 0 _l
91 760 _l
181 760 _l
181 462 _l
202 494 227 519 257 535 _c
286 551 320 560 358 560 _c
420 560 468 540 500 501 _c
532 462 549 405 549 330 _c
_cl}_d
/i{278 0 94 0 184 760 _sc
94 547 _m
184 547 _l
184 0 _l
94 0 _l
94 547 _l
94 760 _m
184 760 _l
184 646 _l
94 646 _l
94 760 _l
_cl}_d
/l{278 0 94 0 184 760 _sc
94 760 _m
184 760 _l
184 0 _l
94 0 _l
94 760 _l
_cl}_d
/m{{974 0 91 0 889 560 _sc
520 442 _m
542 482 569 511 600 531 _c
631 550 668 560 711 560 _c
767 560 811 540 842 500 _c
873 460 889 403 889 330 _c
889 0 _l
799 0 _l
799 327 _l
799 379 789 418 771 444 _c
752 469 724 482 686 482 _c
639 482 602 466 575 435 _c
548 404 535 362 535 309 _c
535 0 _l
445 0 _l
445 327 _l
445 379 435 418 417 444 _c
398 469 369 482 331 482 _c
}_e{285 482 248 466 221 435 _c
194 404 181 362 181 309 _c
181 0 _l
91 0 _l
91 547 _l
181 547 _l
181 462 _l
201 495 226 520 255 536 _c
283 552 317 560 357 560 _c
397 560 430 550 458 530 _c
486 510 506 480 520 442 _c
_cl}_e}_d
/n{634 0 91 0 549 560 _sc
549 330 _m
549 0 _l
459 0 _l
459 327 _l
459 379 448 417 428 443 _c
408 469 378 482 338 482 _c
289 482 251 466 223 435 _c
195 404 181 362 181 309 _c
181 0 _l
91 0 _l
91 547 _l
181 547 _l
181 462 _l
202 494 227 519 257 535 _c
286 551 320 560 358 560 _c
420 560 468 540 500 501 _c
532 462 549 405 549 330 _c
_cl}_d
/o{612 0 55 -13 557 560 _sc
306 484 _m
258 484 220 465 192 427 _c
164 389 150 338 150 273 _c
150 207 163 156 191 118 _c
219 80 257 62 306 62 _c
354 62 392 80 420 118 _c
448 156 462 207 462 273 _c
462 337 448 389 420 427 _c
392 465 354 484 306 484 _c
306 560 _m
384 560 445 534 490 484 _c
534 433 557 363 557 273 _c
557 183 534 113 490 63 _c
445 12 384 -13 306 -13 _c
227 -13 165 12 121 63 _c
77 113 55 183 55 273 _c
55 363 77 433 121 484 _c
165 534 227 560 306 560 _c
_cl}_d
/q{{635 0 55 -207 544 560 _sc
148 273 _m
148 207 161 155 188 117 _c
215 79 253 61 301 61 _c
348 61 385 79 413 117 _c
440 155 454 207 454 273 _c
454 339 440 390 413 428 _c
385 466 348 485 301 485 _c
253 485 215 466 188 428 _c
161 390 148 339 148 273 _c
454 82 _m
435 49 411 25 382 10 _c
353 -5 319 -13 279 -13 _c
213 -13 159 13 117 65 _c
75 117 55 187 55 273 _c
}_e{55 359 75 428 117 481 _c
159 533 213 560 279 560 _c
319 560 353 552 382 536 _c
411 520 435 496 454 464 _c
454 547 _l
544 547 _l
544 -207 _l
454 -207 _l
454 82 _l
_cl}_e}_d
/r{411 0 91 0 411 560 _sc
411 463 _m
401 469 390 473 378 476 _c
366 478 353 480 339 480 _c
288 480 249 463 222 430 _c
194 397 181 350 181 288 _c
181 0 _l
91 0 _l
91 547 _l
181 547 _l
181 462 _l
199 495 224 520 254 536 _c
284 552 321 560 365 560 _c
371 560 378 559 386 559 _c
393 558 401 557 411 555 _c
411 463 _l
_cl}_d
/s{{521 0 54 -13 472 560 _sc
443 531 _m
443 446 _l
417 458 391 468 364 475 _c
336 481 308 485 279 485 _c
234 485 200 478 178 464 _c
156 450 145 430 145 403 _c
145 382 153 366 169 354 _c
185 342 217 330 265 320 _c
296 313 _l
360 299 405 279 432 255 _c
458 230 472 195 472 151 _c
472 100 452 60 412 31 _c
372 1 316 -13 246 -13 _c
216 -13 186 -10 154 -5 _c
}_e{122 0 89 8 54 20 _c
54 113 _l
87 95 120 82 152 74 _c
184 65 216 61 248 61 _c
290 61 323 68 346 82 _c
368 96 380 117 380 144 _c
380 168 371 187 355 200 _c
339 213 303 226 247 238 _c
216 245 _l
160 257 119 275 95 299 _c
70 323 58 356 58 399 _c
58 450 76 490 112 518 _c
148 546 200 560 268 560 _c
301 560 332 557 362 552 _c
391 547 418 540 443 531 _c
}_e{_cl}_e}_d
/t{392 0 27 0 368 702 _sc
183 702 _m
183 547 _l
368 547 _l
368 477 _l
183 477 _l
183 180 _l
183 135 189 106 201 94 _c
213 81 238 75 276 75 _c
368 75 _l
368 0 _l
276 0 _l
206 0 158 13 132 39 _c
106 65 93 112 93 180 _c
93 477 _l
27 477 _l
27 547 _l
93 547 _l
93 702 _l
183 702 _l
_cl}_d
/u{634 0 85 -13 543 560 _sc
85 216 _m
85 547 _l
175 547 _l
175 219 _l
175 167 185 129 205 103 _c
225 77 255 64 296 64 _c
344 64 383 79 411 110 _c
439 141 453 183 453 237 _c
453 547 _l
543 547 _l
543 0 _l
453 0 _l
453 84 _l
431 50 405 26 377 10 _c
348 -5 315 -13 277 -13 _c
214 -13 166 6 134 45 _c
101 83 85 140 85 216 _c
311 560 _m
311 560 _l
_cl}_d
/v{592 0 30 0 562 547 _sc
30 547 _m
125 547 _l
296 88 _l
467 547 _l
562 547 _l
357 0 _l
235 0 _l
30 547 _l
_cl}_d
/x{592 0 29 0 559 547 _sc
549 547 _m
351 281 _l
559 0 _l
453 0 _l
294 215 _l
135 0 _l
29 0 _l
241 286 _l
47 547 _l
153 547 _l
298 352 _l
443 547 _l
549 547 _l
_cl}_d
/y{592 0 30 -207 562 547 _sc
322 -50 _m
296 -114 271 -157 247 -177 _c
223 -197 191 -207 151 -207 _c
79 -207 _l
79 -132 _l
132 -132 _l
156 -132 175 -126 189 -114 _c
203 -102 218 -75 235 -31 _c
251 9 _l
30 547 _l
125 547 _l
296 119 _l
467 547 _l
562 547 _l
322 -50 _l
_cl}_d
end readonly def

/BuildGlyph
 {exch begin
 CharStrings exch
 2 copy known not{pop /.notdef}if
 true 3 1 roll get exec
 end}_d

/BuildChar {
 1 index /Encoding get exch get
 1 index /BuildGlyph get exec
}_d

FontName currentdict end definefont pop
end
%%EndProlog
mpldict begin
-126 72 translate
864 648 0 0 clipbox
gsave
0 0 m
864 0 l
864 648 l
0 648 l
cl
1.000 setgray
fill
grestore
gsave
63.675 145.925 m
849.7 145.925 l
849.7 633.7 l
63.675 633.7 l
cl
1.000 setgray
fill
grestore
gsave
786 487.8 63.68 145.9 clipbox
99.403409 145.925 m
109.293626 145.925 l
109.293626 610.472619 l
99.403409 610.472619 l
cl
0.122 0.467 0.706 setrgbcolor
fill
grestore
gsave
786 487.8 63.68 145.9 clipbox
111.76618 145.925 m
121.656397 145.925 l
121.656397 551.365843 l
111.76618 551.365843 l
cl
0.122 0.467 0.706 setrgbcolor
fill
grestore
gsave
786 487.8 63.68 145.9 clipbox
124.128952 145.925 m
134.019169 145.925 l
134.019169 514.353473 l
124.128952 514.353473 l
cl
0.122 0.467 0.706 setrgbcolor
fill
grestore
gsave
786 487.8 63.68 145.9 clipbox
136.491723 145.925 m
146.38194 145.925 l
146.38194 475.278582 l
136.491723 475.278582 l
cl
0.122 0.467 0.706 setrgbcolor
fill
grestore
gsave
786 487.8 63.68 145.9 clipbox
148.854494 145.925 m
158.744711 145.925 l
158.744711 393.427563 l
148.854494 393.427563 l
cl
0.122 0.467 0.706 setrgbcolor
fill
grestore
gsave
786 487.8 63.68 145.9 clipbox
161.217266 145.925 m
171.107483 145.925 l
171.107483 389.30252 l
161.217266 389.30252 l
cl
0.122 0.467 0.706 setrgbcolor
fill
grestore
gsave
786 487.8 63.68 145.9 clipbox
173.580037 145.925 m
183.470254 145.925 l
183.470254 380.543868 l
173.580037 380.543868 l
cl
0.122 0.467 0.706 setrgbcolor
fill
grestore
gsave
786 487.8 63.68 145.9 clipbox
185.942808 145.925 m
195.833025 145.925 l
195.833025 360.34246 l
185.942808 360.34246 l
cl
0.122 0.467 0.706 setrgbcolor
fill
grestore
gsave
786 487.8 63.68 145.9 clipbox
198.30558 145.925 m
208.195797 145.925 l
208.195797 346.667661 l
198.30558 346.667661 l
cl
0.122 0.467 0.706 setrgbcolor
fill
grestore
gsave
786 487.8 63.68 145.9 clipbox
210.668351 145.925 m
220.558568 145.925 l
220.558568 342.17532 l
210.668351 342.17532 l
cl
0.122 0.467 0.706 setrgbcolor
fill
grestore
gsave
786 487.8 63.68 145.9 clipbox
223.031122 145.925 m
232.921339 145.925 l
232.921339 329.065595 l
223.031122 329.065595 l
cl
0.122 0.467 0.706 setrgbcolor
fill
grestore
gsave
786 487.8 63.68 145.9 clipbox
235.393894 145.925 m
245.284111 145.925 l
245.284111 313.695573 l
235.393894 313.695573 l
cl
0.122 0.467 0.706 setrgbcolor
fill
grestore
gsave
786 487.8 63.68 145.9 clipbox
247.756665 145.925 m
257.646882 145.925 l
257.646882 308.666411 l
247.756665 308.666411 l
cl
0.122 0.467 0.706 setrgbcolor
fill
grestore
gsave
786 487.8 63.68 145.9 clipbox
260.119436 145.925 m
270.009653 145.925 l
270.009653 308.35562 l
260.119436 308.35562 l
cl
0.122 0.467 0.706 setrgbcolor
fill
grestore
gsave
786 487.8 63.68 145.9 clipbox
272.482207 145.925 m
282.372425 145.925 l
282.372425 304.004548 l
272.482207 304.004548 l
cl
0.122 0.467 0.706 setrgbcolor
fill
grestore
gsave
786 487.8 63.68 145.9 clipbox
284.844979 145.925 m
294.735196 145.925 l
294.735196 290.810062 l
284.844979 290.810062 l
cl
0.122 0.467 0.706 setrgbcolor
fill
grestore
gsave
786 487.8 63.68 145.9 clipbox
297.20775 145.925 m
307.097967 145.925 l
307.097967 288.578018 l
297.20775 288.578018 l
cl
0.122 0.467 0.706 setrgbcolor
fill
grestore
gsave
786 487.8 63.68 145.9 clipbox
309.570521 145.925 m
319.460738 145.925 l
319.460738 277.982874 l
309.570521 277.982874 l
cl
0.122 0.467 0.706 setrgbcolor
fill
grestore
gsave
786 487.8 63.68 145.9 clipbox
321.933293 145.925 m
331.82351 145.925 l
331.82351 243.485086 l
321.933293 243.485086 l
cl
0.122 0.467 0.706 setrgbcolor
fill
grestore
gsave
786 487.8 63.68 145.9 clipbox
334.296064 145.925 m
344.186281 145.925 l
344.186281 242.920011 l
334.296064 242.920011 l
cl
0.122 0.467 0.706 setrgbcolor
fill
grestore
gsave
786 487.8 63.68 145.9 clipbox
346.658835 145.925 m
356.549052 145.925 l
356.549052 234.641672 l
346.658835 234.641672 l
cl
0.122 0.467 0.706 setrgbcolor
fill
grestore
gsave
786 487.8 63.68 145.9 clipbox
359.021607 145.925 m
368.911824 145.925 l
368.911824 191.469992 l
359.021607 191.469992 l
cl
0.122 0.467 0.706 setrgbcolor
fill
grestore
gsave
786 487.8 63.68 145.9 clipbox
371.384378 145.925 m
381.274595 145.925 l
381.274595 189.294456 l
371.384378 189.294456 l
cl
0.122 0.467 0.706 setrgbcolor
fill
grestore
gsave
786 487.8 63.68 145.9 clipbox
383.747149 145.925 m
393.637366 145.925 l
393.637366 188.814143 l
383.747149 188.814143 l
cl
0.122 0.467 0.706 setrgbcolor
fill
grestore
gsave
786 487.8 63.68 145.9 clipbox
396.109921 145.925 m
406.000138 145.925 l
406.000138 184.6891 l
396.109921 184.6891 l
cl
0.122 0.467 0.706 setrgbcolor
fill
grestore
gsave
786 487.8 63.68 145.9 clipbox
408.472692 145.925 m
418.362909 145.925 l
418.362909 183.022131 l
408.472692 183.022131 l
cl
0.122 0.467 0.706 setrgbcolor
fill
grestore
gsave
786 487.8 63.68 145.9 clipbox
420.835463 145.925 m
430.72568 145.925 l
430.72568 178.812327 l
420.835463 178.812327 l
cl
0.122 0.467 0.706 setrgbcolor
fill
grestore
gsave
786 487.8 63.68 145.9 clipbox
433.198235 145.925 m
443.088452 145.925 l
443.088452 175.11109 l
433.198235 175.11109 l
cl
0.122 0.467 0.706 setrgbcolor
fill
grestore
gsave
786 487.8 63.68 145.9 clipbox
445.561006 145.925 m
455.451223 145.925 l
455.451223 174.319986 l
445.561006 174.319986 l
cl
0.122 0.467 0.706 setrgbcolor
fill
grestore
gsave
786 487.8 63.68 145.9 clipbox
457.923777 145.925 m
467.813994 145.925 l
467.813994 172.737778 l
457.923777 172.737778 l
cl
0.122 0.467 0.706 setrgbcolor
fill
grestore
gsave
786 487.8 63.68 145.9 clipbox
470.286548 145.925 m
480.176765 145.925 l
480.176765 169.121302 l
470.286548 169.121302 l
cl
0.122 0.467 0.706 setrgbcolor
fill
grestore
gsave
786 487.8 63.68 145.9 clipbox
482.64932 145.925 m
492.539537 145.925 l
492.539537 167.73687 l
482.64932 167.73687 l
cl
0.122 0.467 0.706 setrgbcolor
fill
grestore
gsave
786 487.8 63.68 145.9 clipbox
495.012091 145.925 m
504.902308 145.925 l
504.902308 167.002273 l
495.012091 167.002273 l
cl
0.122 0.467 0.706 setrgbcolor
fill
grestore
gsave
786 487.8 63.68 145.9 clipbox
507.374862 145.925 m
517.265079 145.925 l
517.265079 166.465452 l
507.374862 166.465452 l
cl
0.122 0.467 0.706 setrgbcolor
fill
grestore
gsave
786 487.8 63.68 145.9 clipbox
519.737634 145.925 m
529.627851 145.925 l
529.627851 164.346424 l
519.737634 164.346424 l
cl
0.122 0.467 0.706 setrgbcolor
fill
grestore
gsave
786 487.8 63.68 145.9 clipbox
532.100405 145.925 m
541.990622 145.925 l
541.990622 160.984231 l
532.100405 160.984231 l
cl
0.122 0.467 0.706 setrgbcolor
fill
grestore
gsave
786 487.8 63.68 145.9 clipbox
544.463176 145.925 m
554.353393 145.925 l
554.353393 158.554412 l
544.463176 158.554412 l
cl
0.122 0.467 0.706 setrgbcolor
fill
grestore
gsave
786 487.8 63.68 145.9 clipbox
556.825948 145.925 m
566.716165 145.925 l
566.716165 156.972203 l
556.825948 156.972203 l
cl
0.122 0.467 0.706 setrgbcolor
fill
grestore
gsave
786 487.8 63.68 145.9 clipbox
569.188719 145.925 m
579.078936 145.925 l
579.078936 156.181099 l
569.188719 156.181099 l
cl
0.122 0.467 0.706 setrgbcolor
fill
grestore
gsave
786 487.8 63.68 145.9 clipbox
581.55149 145.925 m
591.441707 145.925 l
591.441707 155.95507 l
581.55149 155.95507 l
cl
0.122 0.467 0.706 setrgbcolor
fill
grestore
gsave
786 487.8 63.68 145.9 clipbox
593.914262 145.925 m
603.804479 145.925 l
603.804479 155.446503 l
593.914262 155.446503 l
cl
0.122 0.467 0.706 setrgbcolor
fill
grestore
gsave
786 487.8 63.68 145.9 clipbox
606.277033 145.925 m
616.16725 145.925 l
616.16725 154.881428 l
606.277033 154.881428 l
cl
0.122 0.467 0.706 setrgbcolor
fill
grestore
gsave
786 487.8 63.68 145.9 clipbox
618.639804 145.925 m
628.530021 145.925 l
628.530021 154.231593 l
618.639804 154.231593 l
cl
0.122 0.467 0.706 setrgbcolor
fill
grestore
gsave
786 487.8 63.68 145.9 clipbox
631.002575 145.925 m
640.892793 145.925 l
640.892793 154.005563 l
631.002575 154.005563 l
cl
0.122 0.467 0.706 setrgbcolor
fill
grestore
gsave
786 487.8 63.68 145.9 clipbox
643.365347 145.925 m
653.255564 145.925 l
653.255564 152.903668 l
643.365347 152.903668 l
cl
0.122 0.467 0.706 setrgbcolor
fill
grestore
gsave
786 487.8 63.68 145.9 clipbox
655.728118 145.925 m
665.618335 145.925 l
665.618335 152.027803 l
655.728118 152.027803 l
cl
0.122 0.467 0.706 setrgbcolor
fill
grestore
gsave
786 487.8 63.68 145.9 clipbox
668.090889 145.925 m
677.981106 145.925 l
677.981106 151.434475 l
668.090889 151.434475 l
cl
0.122 0.467 0.706 setrgbcolor
fill
grestore
gsave
786 487.8 63.68 145.9 clipbox
680.453661 145.925 m
690.343878 145.925 l
690.343878 150.586863 l
680.453661 150.586863 l
cl
0.122 0.467 0.706 setrgbcolor
fill
grestore
gsave
786 487.8 63.68 145.9 clipbox
692.816432 145.925 m
702.706649 145.925 l
702.706649 149.654491 l
692.816432 149.654491 l
cl
0.122 0.467 0.706 setrgbcolor
fill
grestore
gsave
786 487.8 63.68 145.9 clipbox
705.179203 145.925 m
715.06942 145.925 l
715.06942 149.597983 l
705.179203 149.597983 l
cl
0.122 0.467 0.706 setrgbcolor
fill
grestore
gsave
786 487.8 63.68 145.9 clipbox
717.541975 145.925 m
727.432192 145.925 l
727.432192 149.484968 l
717.541975 149.484968 l
cl
0.122 0.467 0.706 setrgbcolor
fill
grestore
gsave
786 487.8 63.68 145.9 clipbox
729.904746 145.925 m
739.794963 145.925 l
739.794963 149.400207 l
729.904746 149.400207 l
cl
0.122 0.467 0.706 setrgbcolor
fill
grestore
gsave
786 487.8 63.68 145.9 clipbox
742.267517 145.925 m
752.157734 145.925 l
752.157734 148.976401 l
742.267517 148.976401 l
cl
0.122 0.467 0.706 setrgbcolor
fill
grestore
gsave
786 487.8 63.68 145.9 clipbox
754.630289 145.925 m
764.520506 145.925 l
764.520506 148.467835 l
754.630289 148.467835 l
cl
0.122 0.467 0.706 setrgbcolor
fill
grestore
gsave
786 487.8 63.68 145.9 clipbox
766.99306 145.925 m
776.883277 145.925 l
776.883277 148.326566 l
766.99306 148.326566 l
cl
0.122 0.467 0.706 setrgbcolor
fill
grestore
gsave
786 487.8 63.68 145.9 clipbox
779.355831 145.925 m
789.246048 145.925 l
789.246048 147.196417 l
779.355831 147.196417 l
cl
0.122 0.467 0.706 setrgbcolor
fill
grestore
gsave
786 487.8 63.68 145.9 clipbox
791.718603 145.925 m
801.60882 145.925 l
801.60882 146.772612 l
791.718603 146.772612 l
cl
0.122 0.467 0.706 setrgbcolor
fill
grestore
gsave
786 487.8 63.68 145.9 clipbox
804.081374 145.925 m
813.971591 145.925 l
813.971591 146.518328 l
804.081374 146.518328 l
cl
0.122 0.467 0.706 setrgbcolor
fill
grestore
0.800 setlinewidth
1 setlinejoin
0 setlinecap
[] 0 setdash
0.000 setgray
gsave
/o {
gsave
newpath
translate
0.8 setlinewidth
1 setlinejoin
0 setlinecap
0 0 m
0 -3.5 l

gsave
0.000 setgray
fill
grestore
stroke
grestore
} bind def
104.349 145.925 o
grestore
/DejaVuSans findfont
10.000 scalefont
setfont
gsave
107.106330 67.675000 translate
90.000000 rotate
0.000000 0.000000 m /u glyphshow
6.337891 0.000000 m /s glyphshow
11.547852 0.000000 m /e glyphshow
17.700195 0.000000 m /r glyphshow
21.811523 0.000000 m /period glyphshow
24.990234 0.000000 m /r glyphshow
29.101562 0.000000 m /a glyphshow
35.229492 0.000000 m /t glyphshow
39.150391 0.000000 m /i glyphshow
41.928711 0.000000 m /n glyphshow
48.266602 0.000000 m /g glyphshow
54.614258 0.000000 m /S glyphshow
60.961914 0.000000 m /t glyphshow
64.882812 0.000000 m /d glyphshow
grestore
gsave
/o {
gsave
newpath
translate
0.8 setlinewidth
1 setlinejoin
0 setlinecap
0 0 m
0 -3.5 l

gsave
0.000 setgray
fill
grestore
stroke
grestore
} bind def
116.711 145.925 o
grestore
gsave
119.469101 56.253125 translate
90.000000 rotate
0.000000 0.000000 m /i glyphshow
2.778320 0.000000 m /t glyphshow
6.699219 0.000000 m /e glyphshow
12.851562 0.000000 m /m glyphshow
22.592773 0.000000 m /period glyphshow
25.771484 0.000000 m /r glyphshow
29.882812 0.000000 m /a glyphshow
36.010742 0.000000 m /t glyphshow
39.931641 0.000000 m /i glyphshow
42.709961 0.000000 m /n glyphshow
49.047852 0.000000 m /g glyphshow
55.395508 0.000000 m /M glyphshow
64.023438 0.000000 m /e glyphshow
70.175781 0.000000 m /a glyphshow
76.303711 0.000000 m /n glyphshow
grestore
gsave
/o {
gsave
newpath
translate
0.8 setlinewidth
1 setlinejoin
0 setlinecap
0 0 m
0 -3.5 l

gsave
0.000 setgray
fill
grestore
stroke
grestore
} bind def
129.074 145.925 o
grestore
gsave
131.831873 57.034375 translate
90.000000 rotate
0.000000 0.000000 m /u glyphshow
6.337891 0.000000 m /s glyphshow
11.547852 0.000000 m /e glyphshow
17.700195 0.000000 m /r glyphshow
21.811523 0.000000 m /period glyphshow
24.990234 0.000000 m /r glyphshow
29.101562 0.000000 m /a glyphshow
35.229492 0.000000 m /t glyphshow
39.150391 0.000000 m /i glyphshow
41.928711 0.000000 m /n glyphshow
48.266602 0.000000 m /g glyphshow
54.614258 0.000000 m /M glyphshow
63.242188 0.000000 m /e glyphshow
69.394531 0.000000 m /a glyphshow
75.522461 0.000000 m /n glyphshow
grestore
gsave
/o {
gsave
newpath
translate
0.8 setlinewidth
1 setlinejoin
0 setlinecap
0 0 m
0 -3.5 l

gsave
0.000 setgray
fill
grestore
stroke
grestore
} bind def
141.437 145.925 o
grestore
gsave
144.194644 66.893750 translate
90.000000 rotate
0.000000 0.000000 m /i glyphshow
2.778320 0.000000 m /t glyphshow
6.699219 0.000000 m /e glyphshow
12.851562 0.000000 m /m glyphshow
22.592773 0.000000 m /period glyphshow
25.771484 0.000000 m /r glyphshow
29.882812 0.000000 m /a glyphshow
36.010742 0.000000 m /t glyphshow
39.931641 0.000000 m /i glyphshow
42.709961 0.000000 m /n glyphshow
49.047852 0.000000 m /g glyphshow
55.395508 0.000000 m /S glyphshow
61.743164 0.000000 m /t glyphshow
65.664062 0.000000 m /d glyphshow
grestore
gsave
/o {
gsave
newpath
translate
0.8 setlinewidth
1 setlinejoin
0 setlinecap
0 0 m
0 -3.5 l

gsave
0.000 setgray
fill
grestore
stroke
grestore
} bind def
153.8 145.925 o
grestore
1.000 0.000 0.000 setrgbcolor
gsave
156.416790 58.409375 translate
90.000000 rotate
0.000000 0.000000 m /i glyphshow
2.778320 0.000000 m /t glyphshow
6.699219 0.000000 m /e glyphshow
12.851562 0.000000 m /m glyphshow
22.592773 0.000000 m /period glyphshow
25.771484 0.000000 m /m glyphshow
35.512695 0.000000 m /l glyphshow
38.291016 0.000000 m /period glyphshow
41.469727 0.000000 m /m glyphshow
51.210938 0.000000 m /a glyphshow
57.338867 0.000000 m /x glyphshow
63.256836 0.000000 m /underscore glyphshow
68.256836 0.000000 m /i glyphshow
71.035156 0.000000 m /t glyphshow
74.956055 0.000000 m /c glyphshow
grestore
0.000 setgray
gsave
/o {
gsave
newpath
translate
0.8 setlinewidth
1 setlinejoin
0 setlinecap
0 0 m
0 -3.5 l

gsave
0.000 setgray
fill
grestore
stroke
grestore
} bind def
166.162 145.925 o
grestore
1.000 0.000 0.000 setrgbcolor
gsave
168.920187 76.393750 translate
90.000000 rotate
0.000000 0.000000 m /u glyphshow
6.337891 0.000000 m /s glyphshow
11.547852 0.000000 m /e glyphshow
17.700195 0.000000 m /r glyphshow
21.811523 0.000000 m /period glyphshow
24.990234 0.000000 m /m glyphshow
34.731445 0.000000 m /l glyphshow
37.509766 0.000000 m /period glyphshow
40.688477 0.000000 m /m glyphshow
50.429688 0.000000 m /a glyphshow
56.557617 0.000000 m /x glyphshow
grestore
0.000 setgray
gsave
/o {
gsave
newpath
translate
0.8 setlinewidth
1 setlinejoin
0 setlinecap
0 0 m
0 -3.5 l

gsave
0.000 setgray
fill
grestore
stroke
grestore
} bind def
178.525 145.925 o
grestore
1.000 0.000 0.000 setrgbcolor
gsave
181.142333 59.190625 translate
90.000000 rotate
0.000000 0.000000 m /u glyphshow
6.337891 0.000000 m /s glyphshow
11.547852 0.000000 m /e glyphshow
17.700195 0.000000 m /r glyphshow
21.811523 0.000000 m /period glyphshow
24.990234 0.000000 m /m glyphshow
34.731445 0.000000 m /l glyphshow
37.509766 0.000000 m /period glyphshow
40.688477 0.000000 m /m glyphshow
50.429688 0.000000 m /a glyphshow
56.557617 0.000000 m /x glyphshow
62.475586 0.000000 m /underscore glyphshow
67.475586 0.000000 m /i glyphshow
70.253906 0.000000 m /t glyphshow
74.174805 0.000000 m /c glyphshow
grestore
0.000 setgray
gsave
/o {
gsave
newpath
translate
0.8 setlinewidth
1 setlinejoin
0 setlinecap
0 0 m
0 -3.5 l

gsave
0.000 setgray
fill
grestore
stroke
grestore
} bind def
190.888 145.925 o
grestore
1.000 0.000 0.000 setrgbcolor
gsave
193.645729 73.003125 translate
90.000000 rotate
0.000000 0.000000 m /u glyphshow
6.337891 0.000000 m /s glyphshow
11.547852 0.000000 m /e glyphshow
17.700195 0.000000 m /r glyphshow
21.811523 0.000000 m /period glyphshow
24.990234 0.000000 m /m glyphshow
34.731445 0.000000 m /l glyphshow
37.509766 0.000000 m /period glyphshow
40.688477 0.000000 m /g glyphshow
47.036133 0.000000 m /d glyphshow
53.383789 0.000000 m /e glyphshow
59.536133 0.000000 m /g glyphshow
grestore
0.000 setgray
gsave
/o {
gsave
newpath
translate
0.8 setlinewidth
1 setlinejoin
0 setlinecap
0 0 m
0 -3.5 l

gsave
0.000 setgray
fill
grestore
stroke
grestore
} bind def
203.251 145.925 o
grestore
1.000 0.000 0.000 setrgbcolor
gsave
206.008501 52.471875 translate
90.000000 rotate
0.000000 0.000000 m /u glyphshow
6.337891 0.000000 m /s glyphshow
11.547852 0.000000 m /e glyphshow
17.700195 0.000000 m /r glyphshow
21.811523 0.000000 m /period glyphshow
24.990234 0.000000 m /m glyphshow
34.731445 0.000000 m /l glyphshow
37.509766 0.000000 m /period glyphshow
40.688477 0.000000 m /b glyphshow
47.036133 0.000000 m /a glyphshow
53.164062 0.000000 m /l glyphshow
55.942383 0.000000 m /a glyphshow
62.070312 0.000000 m /n glyphshow
68.408203 0.000000 m /c glyphshow
73.906250 0.000000 m /e glyphshow
80.058594 0.000000 m /d glyphshow
grestore
0.000 setgray
gsave
/o {
gsave
newpath
translate
0.8 setlinewidth
1 setlinejoin
0 setlinecap
0 0 m
0 -3.5 l

gsave
0.000 setgray
fill
grestore
stroke
grestore
} bind def
215.613 145.925 o
grestore
1.000 0.000 0.000 setrgbcolor
gsave
218.371272 51.690625 translate
90.000000 rotate
0.000000 0.000000 m /i glyphshow
2.778320 0.000000 m /t glyphshow
6.699219 0.000000 m /e glyphshow
12.851562 0.000000 m /m glyphshow
22.592773 0.000000 m /period glyphshow
25.771484 0.000000 m /m glyphshow
35.512695 0.000000 m /l glyphshow
38.291016 0.000000 m /period glyphshow
41.469727 0.000000 m /b glyphshow
47.817383 0.000000 m /a glyphshow
53.945312 0.000000 m /l glyphshow
56.723633 0.000000 m /a glyphshow
62.851562 0.000000 m /n glyphshow
69.189453 0.000000 m /c glyphshow
74.687500 0.000000 m /e glyphshow
80.839844 0.000000 m /d glyphshow
grestore
0.000 setgray
gsave
/o {
gsave
newpath
translate
0.8 setlinewidth
1 setlinejoin
0 setlinecap
0 0 m
0 -3.5 l

gsave
0.000 setgray
fill
grestore
stroke
grestore
} bind def
227.976 145.925 o
grestore
1.000 0.000 0.000 setrgbcolor
gsave
230.734043 75.612500 translate
90.000000 rotate
0.000000 0.000000 m /i glyphshow
2.778320 0.000000 m /t glyphshow
6.699219 0.000000 m /e glyphshow
12.851562 0.000000 m /m glyphshow
22.592773 0.000000 m /period glyphshow
25.771484 0.000000 m /m glyphshow
35.512695 0.000000 m /l glyphshow
38.291016 0.000000 m /period glyphshow
41.469727 0.000000 m /m glyphshow
51.210938 0.000000 m /a glyphshow
57.338867 0.000000 m /x glyphshow
grestore
0.000 setgray
gsave
/o {
gsave
newpath
translate
0.8 setlinewidth
1 setlinejoin
0 setlinecap
0 0 m
0 -3.5 l

gsave
0.000 setgray
fill
grestore
stroke
grestore
} bind def
240.339 145.925 o
grestore
1.000 0.000 0.000 setrgbcolor
gsave
242.956190 52.612500 translate
90.000000 rotate
0.000000 0.000000 m /u glyphshow
6.337891 0.000000 m /s glyphshow
11.547852 0.000000 m /e glyphshow
17.700195 0.000000 m /r glyphshow
21.811523 0.000000 m /period glyphshow
24.990234 0.000000 m /m glyphshow
34.731445 0.000000 m /l glyphshow
37.509766 0.000000 m /period glyphshow
40.688477 0.000000 m /m glyphshow
50.429688 0.000000 m /e glyphshow
56.582031 0.000000 m /a glyphshow
62.709961 0.000000 m /n glyphshow
69.047852 0.000000 m /underscore glyphshow
74.047852 0.000000 m /i glyphshow
76.826172 0.000000 m /t glyphshow
80.747070 0.000000 m /c glyphshow
grestore
0.000 setgray
gsave
/o {
gsave
newpath
translate
0.8 setlinewidth
1 setlinejoin
0 setlinecap
0 0 m
0 -3.5 l

gsave
0.000 setgray
fill
grestore
stroke
grestore
} bind def
252.702 145.925 o
grestore
1.000 0.000 0.000 setrgbcolor
gsave
255.318961 64.721875 translate
90.000000 rotate
0.000000 0.000000 m /i glyphshow
2.778320 0.000000 m /t glyphshow
6.699219 0.000000 m /e glyphshow
12.851562 0.000000 m /m glyphshow
22.592773 0.000000 m /period glyphshow
25.771484 0.000000 m /m glyphshow
35.512695 0.000000 m /l glyphshow
38.291016 0.000000 m /period glyphshow
41.469727 0.000000 m /s glyphshow
46.679688 0.000000 m /t glyphshow
50.600586 0.000000 m /d glyphshow
56.948242 0.000000 m /underscore glyphshow
61.948242 0.000000 m /i glyphshow
64.726562 0.000000 m /t glyphshow
68.647461 0.000000 m /c glyphshow
grestore
0.000 setgray
gsave
/o {
gsave
newpath
translate
0.8 setlinewidth
1 setlinejoin
0 setlinecap
0 0 m
0 -3.5 l

gsave
0.000 setgray
fill
grestore
stroke
grestore
} bind def
265.065 145.925 o
grestore
1.000 0.000 0.000 setrgbcolor
gsave
267.822357 11.768750 translate
90.000000 rotate
0.000000 0.000000 m /u glyphshow
6.337891 0.000000 m /s glyphshow
11.547852 0.000000 m /e glyphshow
17.700195 0.000000 m /r glyphshow
21.811523 0.000000 m /period glyphshow
24.990234 0.000000 m /m glyphshow
34.731445 0.000000 m /l glyphshow
37.509766 0.000000 m /period glyphshow
40.688477 0.000000 m /f glyphshow
44.208984 0.000000 m /r glyphshow
48.320312 0.000000 m /a glyphshow
54.448242 0.000000 m /c glyphshow
59.946289 0.000000 m /t glyphshow
63.867188 0.000000 m /i glyphshow
66.645508 0.000000 m /o glyphshow
72.763672 0.000000 m /n glyphshow
79.101562 0.000000 m /O glyphshow
86.972656 0.000000 m /f glyphshow
90.493164 0.000000 m /C glyphshow
97.475586 0.000000 m /l glyphshow
100.253906 0.000000 m /i glyphshow
103.032227 0.000000 m /q glyphshow
109.379883 0.000000 m /u glyphshow
115.717773 0.000000 m /e glyphshow
121.870117 0.000000 m /s glyphshow
grestore
0.000 setgray
gsave
/o {
gsave
newpath
translate
0.8 setlinewidth
1 setlinejoin
0 setlinecap
0 0 m
0 -3.5 l

gsave
0.000 setgray
fill
grestore
stroke
grestore
} bind def
277.427 145.925 o
grestore
1.000 0.000 0.000 setrgbcolor
gsave
280.185128 72.221875 translate
90.000000 rotate
0.000000 0.000000 m /i glyphshow
2.778320 0.000000 m /t glyphshow
6.699219 0.000000 m /e glyphshow
12.851562 0.000000 m /m glyphshow
22.592773 0.000000 m /period glyphshow
25.771484 0.000000 m /m glyphshow
35.512695 0.000000 m /l glyphshow
38.291016 0.000000 m /period glyphshow
41.469727 0.000000 m /g glyphshow
47.817383 0.000000 m /d glyphshow
54.165039 0.000000 m /e glyphshow
60.317383 0.000000 m /g glyphshow
grestore
0.000 setgray
gsave
/o {
gsave
newpath
translate
0.8 setlinewidth
1 setlinejoin
0 setlinecap
0 0 m
0 -3.5 l

gsave
0.000 setgray
fill
grestore
stroke
grestore
} bind def
289.79 145.925 o
grestore
1.000 0.000 0.000 setrgbcolor
gsave
292.547900 10.987500 translate
90.000000 rotate
0.000000 0.000000 m /i glyphshow
2.778320 0.000000 m /t glyphshow
6.699219 0.000000 m /e glyphshow
12.851562 0.000000 m /m glyphshow
22.592773 0.000000 m /period glyphshow
25.771484 0.000000 m /m glyphshow
35.512695 0.000000 m /l glyphshow
38.291016 0.000000 m /period glyphshow
41.469727 0.000000 m /f glyphshow
44.990234 0.000000 m /r glyphshow
49.101562 0.000000 m /a glyphshow
55.229492 0.000000 m /c glyphshow
60.727539 0.000000 m /t glyphshow
64.648438 0.000000 m /i glyphshow
67.426758 0.000000 m /o glyphshow
73.544922 0.000000 m /n glyphshow
79.882812 0.000000 m /O glyphshow
87.753906 0.000000 m /f glyphshow
91.274414 0.000000 m /C glyphshow
98.256836 0.000000 m /l glyphshow
101.035156 0.000000 m /i glyphshow
103.813477 0.000000 m /q glyphshow
110.161133 0.000000 m /u glyphshow
116.499023 0.000000 m /e glyphshow
122.651367 0.000000 m /s glyphshow
grestore
0.000 setgray
gsave
/o {
gsave
newpath
translate
0.8 setlinewidth
1 setlinejoin
0 setlinecap
0 0 m
0 -3.5 l

gsave
0.000 setgray
fill
grestore
stroke
grestore
} bind def
302.153 145.925 o
grestore
1.000 0.000 0.000 setrgbcolor
gsave
304.770046 65.503125 translate
90.000000 rotate
0.000000 0.000000 m /u glyphshow
6.337891 0.000000 m /s glyphshow
11.547852 0.000000 m /e glyphshow
17.700195 0.000000 m /r glyphshow
21.811523 0.000000 m /period glyphshow
24.990234 0.000000 m /m glyphshow
34.731445 0.000000 m /l glyphshow
37.509766 0.000000 m /period glyphshow
40.688477 0.000000 m /s glyphshow
45.898438 0.000000 m /t glyphshow
49.819336 0.000000 m /d glyphshow
56.166992 0.000000 m /underscore glyphshow
61.166992 0.000000 m /i glyphshow
63.945312 0.000000 m /t glyphshow
67.866211 0.000000 m /c glyphshow
grestore
0.000 setgray
gsave
/o {
gsave
newpath
translate
0.8 setlinewidth
1 setlinejoin
0 setlinecap
0 0 m
0 -3.5 l

gsave
0.000 setgray
fill
grestore
stroke
grestore
} bind def
314.516 145.925 o
grestore
1.000 0.000 0.000 setrgbcolor
gsave
317.132817 51.831250 translate
90.000000 rotate
0.000000 0.000000 m /i glyphshow
2.778320 0.000000 m /t glyphshow
6.699219 0.000000 m /e glyphshow
12.851562 0.000000 m /m glyphshow
22.592773 0.000000 m /period glyphshow
25.771484 0.000000 m /m glyphshow
35.512695 0.000000 m /l glyphshow
38.291016 0.000000 m /period glyphshow
41.469727 0.000000 m /m glyphshow
51.210938 0.000000 m /e glyphshow
57.363281 0.000000 m /a glyphshow
63.491211 0.000000 m /n glyphshow
69.829102 0.000000 m /underscore glyphshow
74.829102 0.000000 m /i glyphshow
77.607422 0.000000 m /t glyphshow
81.528320 0.000000 m /c glyphshow
grestore
0.000 setgray
gsave
/o {
gsave
newpath
translate
0.8 setlinewidth
1 setlinejoin
0 setlinecap
0 0 m
0 -3.5 l

gsave
0.000 setgray
fill
grestore
stroke
grestore
} bind def
326.878 145.925 o
grestore
1.000 0.000 0.000 setrgbcolor
gsave
329.636214 36.346875 translate
90.000000 rotate
0.000000 0.000000 m /u glyphshow
6.337891 0.000000 m /s glyphshow
11.547852 0.000000 m /e glyphshow
17.700195 0.000000 m /r glyphshow
21.811523 0.000000 m /period glyphshow
24.990234 0.000000 m /m glyphshow
34.731445 0.000000 m /l glyphshow
37.509766 0.000000 m /period glyphshow
40.688477 0.000000 m /a glyphshow
46.816406 0.000000 m /v glyphshow
52.734375 0.000000 m /g glyphshow
59.082031 0.000000 m /D glyphshow
66.782227 0.000000 m /u glyphshow
73.120117 0.000000 m /r glyphshow
77.231445 0.000000 m /a glyphshow
83.359375 0.000000 m /t glyphshow
87.280273 0.000000 m /i glyphshow
90.058594 0.000000 m /o glyphshow
96.176758 0.000000 m /n glyphshow
grestore
0.000 setgray
gsave
/o {
gsave
newpath
translate
0.8 setlinewidth
1 setlinejoin
0 setlinecap
0 0 m
0 -3.5 l

gsave
0.000 setgray
fill
grestore
stroke
grestore
} bind def
339.241 145.925 o
grestore
gsave
341.998985 40.503125 translate
90.000000 rotate
0.000000 0.000000 m /i glyphshow
2.778320 0.000000 m /t glyphshow
6.699219 0.000000 m /e glyphshow
12.851562 0.000000 m /m glyphshow
22.592773 0.000000 m /period glyphshow
25.771484 0.000000 m /n glyphshow
32.109375 0.000000 m /b glyphshow
38.457031 0.000000 m /R glyphshow
45.405273 0.000000 m /a glyphshow
51.533203 0.000000 m /t glyphshow
55.454102 0.000000 m /i glyphshow
58.232422 0.000000 m /n glyphshow
64.570312 0.000000 m /g glyphshow
70.917969 0.000000 m /N glyphshow
78.398438 0.000000 m /o glyphshow
84.516602 0.000000 m /r glyphshow
88.627930 0.000000 m /m glyphshow
grestore
gsave
/o {
gsave
newpath
translate
0.8 setlinewidth
1 setlinejoin
0 setlinecap
0 0 m
0 -3.5 l

gsave
0.000 setgray
fill
grestore
stroke
grestore
} bind def
351.604 145.925 o
grestore
1.000 0.000 0.000 setrgbcolor
gsave
354.361756 35.565625 translate
90.000000 rotate
0.000000 0.000000 m /i glyphshow
2.778320 0.000000 m /t glyphshow
6.699219 0.000000 m /e glyphshow
12.851562 0.000000 m /m glyphshow
22.592773 0.000000 m /period glyphshow
25.771484 0.000000 m /m glyphshow
35.512695 0.000000 m /l glyphshow
38.291016 0.000000 m /period glyphshow
41.469727 0.000000 m /a glyphshow
47.597656 0.000000 m /v glyphshow
53.515625 0.000000 m /g glyphshow
59.863281 0.000000 m /D glyphshow
67.563477 0.000000 m /u glyphshow
73.901367 0.000000 m /r glyphshow
78.012695 0.000000 m /a glyphshow
84.140625 0.000000 m /t glyphshow
88.061523 0.000000 m /i glyphshow
90.839844 0.000000 m /o glyphshow
96.958008 0.000000 m /n glyphshow
grestore
0.000 setgray
gsave
/o {
gsave
newpath
translate
0.8 setlinewidth
1 setlinejoin
0 setlinecap
0 0 m
0 -3.5 l

gsave
0.000 setgray
fill
grestore
stroke
grestore
} bind def
363.967 145.925 o
grestore
gsave
366.724528 62.565625 translate
90.000000 rotate
0.000000 0.000000 m /u glyphshow
6.337891 0.000000 m /s glyphshow
11.547852 0.000000 m /e glyphshow
17.700195 0.000000 m /r glyphshow
21.811523 0.000000 m /period glyphshow
24.990234 0.000000 m /m glyphshow
34.731445 0.000000 m /i glyphshow
37.509766 0.000000 m /n glyphshow
43.847656 0.000000 m /R glyphshow
50.795898 0.000000 m /a glyphshow
56.923828 0.000000 m /t glyphshow
60.844727 0.000000 m /i glyphshow
63.623047 0.000000 m /n glyphshow
69.960938 0.000000 m /g glyphshow
grestore
gsave
/o {
gsave
newpath
translate
0.8 setlinewidth
1 setlinejoin
0 setlinecap
0 0 m
0 -3.5 l

gsave
0.000 setgray
fill
grestore
stroke
grestore
} bind def
376.329 145.925 o
grestore
gsave
379.087299 81.612500 translate
90.000000 rotate
0.000000 0.000000 m /i glyphshow
2.778320 0.000000 m /t glyphshow
6.699219 0.000000 m /e glyphshow
12.851562 0.000000 m /m glyphshow
22.592773 0.000000 m /period glyphshow
25.771484 0.000000 m /A glyphshow
32.612305 0.000000 m /c glyphshow
38.110352 0.000000 m /t glyphshow
42.031250 0.000000 m /i glyphshow
44.809570 0.000000 m /o glyphshow
50.927734 0.000000 m /n glyphshow
grestore
gsave
/o {
gsave
newpath
translate
0.8 setlinewidth
1 setlinejoin
0 setlinecap
0 0 m
0 -3.5 l

gsave
0.000 setgray
fill
grestore
stroke
grestore
} bind def
388.692 145.925 o
grestore
gsave
391.450070 71.846875 translate
90.000000 rotate
0.000000 0.000000 m /i glyphshow
2.778320 0.000000 m /t glyphshow
6.699219 0.000000 m /e glyphshow
12.851562 0.000000 m /m glyphshow
22.592773 0.000000 m /period glyphshow
25.771484 0.000000 m /C glyphshow
32.753906 0.000000 m /o glyphshow
38.872070 0.000000 m /m glyphshow
48.613281 0.000000 m /e glyphshow
54.765625 0.000000 m /d glyphshow
61.113281 0.000000 m /y glyphshow
grestore
gsave
/o {
gsave
newpath
translate
0.8 setlinewidth
1 setlinejoin
0 setlinecap
0 0 m
0 -3.5 l

gsave
0.000 setgray
fill
grestore
stroke
grestore
} bind def
401.055 145.925 o
grestore
gsave
403.812842 79.315625 translate
90.000000 rotate
0.000000 0.000000 m /i glyphshow
2.778320 0.000000 m /t glyphshow
6.699219 0.000000 m /e glyphshow
12.851562 0.000000 m /m glyphshow
22.592773 0.000000 m /period glyphshow
25.771484 0.000000 m /D glyphshow
33.471680 0.000000 m /r glyphshow
37.583008 0.000000 m /a glyphshow
43.710938 0.000000 m /m glyphshow
53.452148 0.000000 m /a glyphshow
grestore
gsave
/o {
gsave
newpath
translate
0.8 setlinewidth
1 setlinejoin
0 setlinecap
0 0 m
0 -3.5 l

gsave
0.000 setgray
fill
grestore
stroke
grestore
} bind def
413.418 145.925 o
grestore
gsave
416.175613 87.690625 translate
90.000000 rotate
0.000000 0.000000 m /i glyphshow
2.778320 0.000000 m /t glyphshow
6.699219 0.000000 m /e glyphshow
12.851562 0.000000 m /m glyphshow
22.592773 0.000000 m /period glyphshow
25.771484 0.000000 m /one glyphshow
32.133789 0.000000 m /nine glyphshow
38.496094 0.000000 m /nine glyphshow
44.858398 0.000000 m /zero glyphshow
grestore
gsave
/o {
gsave
newpath
translate
0.8 setlinewidth
1 setlinejoin
0 setlinecap
0 0 m
0 -3.5 l

gsave
0.000 setgray
fill
grestore
stroke
grestore
} bind def
425.781 145.925 o
grestore
gsave
428.538384 87.690625 translate
90.000000 rotate
0.000000 0.000000 m /i glyphshow
2.778320 0.000000 m /t glyphshow
6.699219 0.000000 m /e glyphshow
12.851562 0.000000 m /m glyphshow
22.592773 0.000000 m /period glyphshow
25.771484 0.000000 m /two glyphshow
32.133789 0.000000 m /zero glyphshow
38.496094 0.000000 m /zero glyphshow
44.858398 0.000000 m /zero glyphshow
grestore
gsave
/o {
gsave
newpath
translate
0.8 setlinewidth
1 setlinejoin
0 setlinecap
0 0 m
0 -3.5 l

gsave
0.000 setgray
fill
grestore
stroke
grestore
} bind def
438.143 145.925 o
grestore
gsave
440.901156 60.987500 translate
90.000000 rotate
0.000000 0.000000 m /i glyphshow
2.778320 0.000000 m /t glyphshow
6.699219 0.000000 m /e glyphshow
12.851562 0.000000 m /m glyphshow
22.592773 0.000000 m /period glyphshow
25.771484 0.000000 m /A glyphshow
32.612305 0.000000 m /d glyphshow
38.959961 0.000000 m /v glyphshow
44.877930 0.000000 m /e glyphshow
51.030273 0.000000 m /n glyphshow
57.368164 0.000000 m /t glyphshow
61.289062 0.000000 m /u glyphshow
67.626953 0.000000 m /r glyphshow
71.738281 0.000000 m /e glyphshow
grestore
gsave
/o {
gsave
newpath
translate
0.8 setlinewidth
1 setlinejoin
0 setlinecap
0 0 m
0 -3.5 l

gsave
0.000 setgray
fill
grestore
stroke
grestore
} bind def
450.506 145.925 o
grestore
gsave
453.263927 47.909375 translate
90.000000 rotate
0.000000 0.000000 m /u glyphshow
6.337891 0.000000 m /s glyphshow
11.547852 0.000000 m /e glyphshow
17.700195 0.000000 m /r glyphshow
21.811523 0.000000 m /period glyphshow
24.990234 0.000000 m /r glyphshow
29.101562 0.000000 m /a glyphshow
35.229492 0.000000 m /t glyphshow
39.150391 0.000000 m /i glyphshow
41.928711 0.000000 m /n glyphshow
48.266602 0.000000 m /g glyphshow
54.614258 0.000000 m /M glyphshow
63.242188 0.000000 m /e glyphshow
69.394531 0.000000 m /d glyphshow
75.742188 0.000000 m /i glyphshow
78.520508 0.000000 m /a glyphshow
84.648438 0.000000 m /n glyphshow
grestore
gsave
/o {
gsave
newpath
translate
0.8 setlinewidth
1 setlinejoin
0 setlinecap
0 0 m
0 -3.5 l

gsave
0.000 setgray
fill
grestore
stroke
grestore
} bind def
462.869 145.925 o
grestore
gsave
465.626698 77.956250 translate
90.000000 rotate
0.000000 0.000000 m /i glyphshow
2.778320 0.000000 m /t glyphshow
6.699219 0.000000 m /e glyphshow
12.851562 0.000000 m /m glyphshow
22.592773 0.000000 m /period glyphshow
25.771484 0.000000 m /T glyphshow
31.879883 0.000000 m /h glyphshow
38.217773 0.000000 m /r glyphshow
42.329102 0.000000 m /i glyphshow
45.107422 0.000000 m /l glyphshow
47.885742 0.000000 m /l glyphshow
50.664062 0.000000 m /e glyphshow
56.816406 0.000000 m /r glyphshow
grestore
gsave
/o {
gsave
newpath
translate
0.8 setlinewidth
1 setlinejoin
0 setlinecap
0 0 m
0 -3.5 l

gsave
0.000 setgray
fill
grestore
stroke
grestore
} bind def
475.232 145.925 o
grestore
gsave
477.989469 86.362500 translate
90.000000 rotate
0.000000 0.000000 m /i glyphshow
2.778320 0.000000 m /t glyphshow
6.699219 0.000000 m /e glyphshow
12.851562 0.000000 m /m glyphshow
22.592773 0.000000 m /period glyphshow
25.771484 0.000000 m /S glyphshow
32.119141 0.000000 m /c glyphshow
37.617188 0.000000 m /i glyphshow
40.395508 0.000000 m /hyphen glyphshow
44.003906 0.000000 m /F glyphshow
49.755859 0.000000 m /i glyphshow
grestore
gsave
/o {
gsave
newpath
translate
0.8 setlinewidth
1 setlinejoin
0 setlinecap
0 0 m
0 -3.5 l

gsave
0.000 setgray
fill
grestore
stroke
grestore
} bind def
487.594 145.925 o
grestore
gsave
490.352241 47.128125 translate
90.000000 rotate
0.000000 0.000000 m /i glyphshow
2.778320 0.000000 m /t glyphshow
6.699219 0.000000 m /e glyphshow
12.851562 0.000000 m /m glyphshow
22.592773 0.000000 m /period glyphshow
25.771484 0.000000 m /r glyphshow
29.882812 0.000000 m /a glyphshow
36.010742 0.000000 m /t glyphshow
39.931641 0.000000 m /i glyphshow
42.709961 0.000000 m /n glyphshow
49.047852 0.000000 m /g glyphshow
55.395508 0.000000 m /M glyphshow
64.023438 0.000000 m /e glyphshow
70.175781 0.000000 m /d glyphshow
76.523438 0.000000 m /i glyphshow
79.301758 0.000000 m /a glyphshow
85.429688 0.000000 m /n glyphshow
grestore
gsave
/o {
gsave
newpath
translate
0.8 setlinewidth
1 setlinejoin
0 setlinecap
0 0 m
0 -3.5 l

gsave
0.000 setgray
fill
grestore
stroke
grestore
} bind def
499.957 145.925 o
grestore
1.000 0.000 0.000 setrgbcolor
gsave
502.715012 79.018750 translate
90.000000 rotate
0.000000 0.000000 m /i glyphshow
2.778320 0.000000 m /t glyphshow
6.699219 0.000000 m /e glyphshow
12.851562 0.000000 m /m glyphshow
22.592773 0.000000 m /period glyphshow
25.771484 0.000000 m /m glyphshow
35.512695 0.000000 m /l glyphshow
38.291016 0.000000 m /period glyphshow
41.469727 0.000000 m /a glyphshow
47.597656 0.000000 m /v glyphshow
53.515625 0.000000 m /g glyphshow
grestore
0.000 setgray
gsave
/o {
gsave
newpath
translate
0.8 setlinewidth
1 setlinejoin
0 setlinecap
0 0 m
0 -3.5 l

gsave
0.000 setgray
fill
grestore
stroke
grestore
} bind def
512.32 145.925 o
grestore
gsave
515.077783 71.284375 translate
90.000000 rotate
0.000000 0.000000 m /i glyphshow
2.778320 0.000000 m /t glyphshow
6.699219 0.000000 m /e glyphshow
12.851562 0.000000 m /m glyphshow
22.592773 0.000000 m /period glyphshow
25.771484 0.000000 m /C glyphshow
32.753906 0.000000 m /h glyphshow
39.091797 0.000000 m /i glyphshow
41.870117 0.000000 m /l glyphshow
44.648438 0.000000 m /d glyphshow
50.996094 0.000000 m /r glyphshow
55.107422 0.000000 m /e glyphshow
61.259766 0.000000 m /n glyphshow
grestore
gsave
/o {
gsave
newpath
translate
0.8 setlinewidth
1 setlinejoin
0 setlinecap
0 0 m
0 -3.5 l

gsave
0.000 setgray
fill
grestore
stroke
grestore
} bind def
524.683 145.925 o
grestore
gsave
527.440555 66.175000 translate
90.000000 rotate
0.000000 0.000000 m /i glyphshow
2.778320 0.000000 m /t glyphshow
6.699219 0.000000 m /e glyphshow
12.851562 0.000000 m /m glyphshow
22.592773 0.000000 m /period glyphshow
25.771484 0.000000 m /R glyphshow
32.719727 0.000000 m /o glyphshow
38.837891 0.000000 m /m glyphshow
48.579102 0.000000 m /a glyphshow
54.707031 0.000000 m /n glyphshow
61.044922 0.000000 m /c glyphshow
66.542969 0.000000 m /e glyphshow
grestore
gsave
/o {
gsave
newpath
translate
0.8 setlinewidth
1 setlinejoin
0 setlinecap
0 0 m
0 -3.5 l

gsave
0.000 setgray
fill
grestore
stroke
grestore
} bind def
537.046 145.925 o
grestore
gsave
539.803326 41.284375 translate
90.000000 rotate
0.000000 0.000000 m /u glyphshow
6.337891 0.000000 m /s glyphshow
11.547852 0.000000 m /e glyphshow
17.700195 0.000000 m /r glyphshow
21.811523 0.000000 m /period glyphshow
24.990234 0.000000 m /n glyphshow
31.328125 0.000000 m /b glyphshow
37.675781 0.000000 m /R glyphshow
44.624023 0.000000 m /a glyphshow
50.751953 0.000000 m /t glyphshow
54.672852 0.000000 m /i glyphshow
57.451172 0.000000 m /n glyphshow
63.789062 0.000000 m /g glyphshow
70.136719 0.000000 m /N glyphshow
77.617188 0.000000 m /o glyphshow
83.735352 0.000000 m /r glyphshow
87.846680 0.000000 m /m glyphshow
grestore
gsave
/o {
gsave
newpath
translate
0.8 setlinewidth
1 setlinejoin
0 setlinecap
0 0 m
0 -3.5 l

gsave
0.000 setgray
fill
grestore
stroke
grestore
} bind def
549.408 145.925 o
grestore
gsave
552.166097 83.346875 translate
90.000000 rotate
0.000000 0.000000 m /i glyphshow
2.778320 0.000000 m /t glyphshow
6.699219 0.000000 m /e glyphshow
12.851562 0.000000 m /m glyphshow
22.592773 0.000000 m /period glyphshow
25.771484 0.000000 m /C glyphshow
32.753906 0.000000 m /r glyphshow
36.865234 0.000000 m /i glyphshow
39.643555 0.000000 m /m glyphshow
49.384766 0.000000 m /e glyphshow
grestore
gsave
/o {
gsave
newpath
translate
0.8 setlinewidth
1 setlinejoin
0 setlinecap
0 0 m
0 -3.5 l

gsave
0.000 setgray
fill
grestore
stroke
grestore
} bind def
561.771 145.925 o
grestore
gsave
564.528869 81.034375 translate
90.000000 rotate
0.000000 0.000000 m /i glyphshow
2.778320 0.000000 m /t glyphshow
6.699219 0.000000 m /e glyphshow
12.851562 0.000000 m /m glyphshow
22.592773 0.000000 m /period glyphshow
25.771484 0.000000 m /H glyphshow
33.291016 0.000000 m /o glyphshow
39.409180 0.000000 m /r glyphshow
43.520508 0.000000 m /r glyphshow
47.631836 0.000000 m /o glyphshow
53.750000 0.000000 m /r glyphshow
grestore
gsave
/o {
gsave
newpath
translate
0.8 setlinewidth
1 setlinejoin
0 setlinecap
0 0 m
0 -3.5 l

gsave
0.000 setgray
fill
grestore
stroke
grestore
} bind def
574.134 145.925 o
grestore
gsave
576.891640 87.690625 translate
90.000000 rotate
0.000000 0.000000 m /i glyphshow
2.778320 0.000000 m /t glyphshow
6.699219 0.000000 m /e glyphshow
12.851562 0.000000 m /m glyphshow
22.592773 0.000000 m /period glyphshow
25.771484 0.000000 m /one glyphshow
32.133789 0.000000 m /nine glyphshow
38.496094 0.000000 m /eight glyphshow
44.858398 0.000000 m /zero glyphshow
grestore
gsave
/o {
gsave
newpath
translate
0.8 setlinewidth
1 setlinejoin
0 setlinecap
0 0 m
0 -3.5 l

gsave
0.000 setgray
fill
grestore
stroke
grestore
} bind def
586.497 145.925 o
grestore
gsave
589.254411 73.721875 translate
90.000000 rotate
0.000000 0.000000 m /i glyphshow
2.778320 0.000000 m /t glyphshow
6.699219 0.000000 m /e glyphshow
12.851562 0.000000 m /m glyphshow
22.592773 0.000000 m /period glyphshow
25.771484 0.000000 m /F glyphshow
31.523438 0.000000 m /a glyphshow
37.651367 0.000000 m /n glyphshow
43.989258 0.000000 m /t glyphshow
47.910156 0.000000 m /a glyphshow
54.038086 0.000000 m /s glyphshow
59.248047 0.000000 m /y glyphshow
grestore
gsave
/o {
gsave
newpath
translate
0.8 setlinewidth
1 setlinejoin
0 setlinecap
0 0 m
0 -3.5 l

gsave
0.000 setgray
fill
grestore
stroke
grestore
} bind def
598.859 145.925 o
grestore
gsave
601.617183 62.112500 translate
90.000000 rotate
0.000000 0.000000 m /i glyphshow
2.778320 0.000000 m /t glyphshow
6.699219 0.000000 m /e glyphshow
12.851562 0.000000 m /m glyphshow
22.592773 0.000000 m /period glyphshow
25.771484 0.000000 m /A glyphshow
32.612305 0.000000 m /n glyphshow
38.950195 0.000000 m /i glyphshow
41.728516 0.000000 m /m glyphshow
51.469727 0.000000 m /a glyphshow
57.597656 0.000000 m /t glyphshow
61.518555 0.000000 m /i glyphshow
64.296875 0.000000 m /o glyphshow
70.415039 0.000000 m /n glyphshow
grestore
gsave
/o {
gsave
newpath
translate
0.8 setlinewidth
1 setlinejoin
0 setlinecap
0 0 m
0 -3.5 l

gsave
0.000 setgray
fill
grestore
stroke
grestore
} bind def
611.222 145.925 o
grestore
gsave
613.979954 73.253125 translate
90.000000 rotate
0.000000 0.000000 m /i glyphshow
2.778320 0.000000 m /t glyphshow
6.699219 0.000000 m /e glyphshow
12.851562 0.000000 m /m glyphshow
22.592773 0.000000 m /period glyphshow
25.771484 0.000000 m /M glyphshow
34.399414 0.000000 m /y glyphshow
40.317383 0.000000 m /s glyphshow
45.527344 0.000000 m /t glyphshow
49.448242 0.000000 m /e glyphshow
55.600586 0.000000 m /r glyphshow
59.711914 0.000000 m /y glyphshow
grestore
gsave
/o {
gsave
newpath
translate
0.8 setlinewidth
1 setlinejoin
0 setlinecap
0 0 m
0 -3.5 l

gsave
0.000 setgray
fill
grestore
stroke
grestore
} bind def
623.585 145.925 o
grestore
1.000 0.000 0.000 setrgbcolor
gsave
626.202100 61.331250 translate
90.000000 rotate
0.000000 0.000000 m /i glyphshow
2.778320 0.000000 m /t glyphshow
6.699219 0.000000 m /e glyphshow
12.851562 0.000000 m /m glyphshow
22.592773 0.000000 m /period glyphshow
25.771484 0.000000 m /m glyphshow
35.512695 0.000000 m /l glyphshow
38.291016 0.000000 m /period glyphshow
41.469727 0.000000 m /m glyphshow
51.210938 0.000000 m /i glyphshow
53.989258 0.000000 m /n glyphshow
60.327148 0.000000 m /underscore glyphshow
65.327148 0.000000 m /i glyphshow
68.105469 0.000000 m /t glyphshow
72.026367 0.000000 m /c glyphshow
grestore
0.000 setgray
gsave
/o {
gsave
newpath
translate
0.8 setlinewidth
1 setlinejoin
0 setlinecap
0 0 m
0 -3.5 l

gsave
0.000 setgray
fill
grestore
stroke
grestore
} bind def
635.948 145.925 o
grestore
gsave
638.705497 75.753125 translate
90.000000 rotate
0.000000 0.000000 m /i glyphshow
2.778320 0.000000 m /t glyphshow
6.699219 0.000000 m /e glyphshow
12.851562 0.000000 m /m glyphshow
22.592773 0.000000 m /period glyphshow
25.771484 0.000000 m /M glyphshow
34.399414 0.000000 m /u glyphshow
40.737305 0.000000 m /s glyphshow
45.947266 0.000000 m /i glyphshow
48.725586 0.000000 m /c glyphshow
54.223633 0.000000 m /a glyphshow
60.351562 0.000000 m /l glyphshow
grestore
gsave
/o {
gsave
newpath
translate
0.8 setlinewidth
1 setlinejoin
0 setlinecap
0 0 m
0 -3.5 l

gsave
0.000 setgray
fill
grestore
stroke
grestore
} bind def
648.31 145.925 o
grestore
gsave
651.068268 87.690625 translate
90.000000 rotate
0.000000 0.000000 m /i glyphshow
2.778320 0.000000 m /t glyphshow
6.699219 0.000000 m /e glyphshow
12.851562 0.000000 m /m glyphshow
22.592773 0.000000 m /period glyphshow
25.771484 0.000000 m /one glyphshow
32.133789 0.000000 m /nine glyphshow
38.496094 0.000000 m /seven glyphshow
44.858398 0.000000 m /zero glyphshow
grestore
gsave
/o {
gsave
newpath
translate
0.8 setlinewidth
1 setlinejoin
0 setlinecap
0 0 m
0 -3.5 l

gsave
0.000 setgray
fill
grestore
stroke
grestore
} bind def
660.673 145.925 o
grestore
gsave
663.431039 71.331250 translate
90.000000 rotate
0.000000 0.000000 m /i glyphshow
2.778320 0.000000 m /t glyphshow
6.699219 0.000000 m /e glyphshow
12.851562 0.000000 m /m glyphshow
22.592773 0.000000 m /period glyphshow
25.771484 0.000000 m /W glyphshow
35.659180 0.000000 m /e glyphshow
41.811523 0.000000 m /s glyphshow
47.021484 0.000000 m /t glyphshow
50.942383 0.000000 m /e glyphshow
57.094727 0.000000 m /r glyphshow
61.206055 0.000000 m /n glyphshow
grestore
gsave
/o {
gsave
newpath
translate
0.8 setlinewidth
1 setlinejoin
0 setlinecap
0 0 m
0 -3.5 l

gsave
0.000 setgray
fill
grestore
stroke
grestore
} bind def
673.036 145.925 o
grestore
gsave
675.793810 45.128125 translate
90.000000 rotate
0.000000 0.000000 m /i glyphshow
2.778320 0.000000 m /t glyphshow
6.699219 0.000000 m /e glyphshow
12.851562 0.000000 m /m glyphshow
22.592773 0.000000 m /period glyphshow
25.771484 0.000000 m /D glyphshow
33.471680 0.000000 m /o glyphshow
39.589844 0.000000 m /c glyphshow
45.087891 0.000000 m /u glyphshow
51.425781 0.000000 m /m glyphshow
61.166992 0.000000 m /e glyphshow
67.319336 0.000000 m /n glyphshow
73.657227 0.000000 m /t glyphshow
77.578125 0.000000 m /a glyphshow
83.706055 0.000000 m /r glyphshow
87.817383 0.000000 m /y glyphshow
grestore
gsave
/o {
gsave
newpath
translate
0.8 setlinewidth
1 setlinejoin
0 setlinecap
0 0 m
0 -3.5 l

gsave
0.000 setgray
fill
grestore
stroke
grestore
} bind def
685.399 145.925 o
grestore
gsave
688.156582 87.690625 translate
90.000000 rotate
0.000000 0.000000 m /i glyphshow
2.778320 0.000000 m /t glyphshow
6.699219 0.000000 m /e glyphshow
12.851562 0.000000 m /m glyphshow
22.592773 0.000000 m /period glyphshow
25.771484 0.000000 m /two glyphshow
32.133789 0.000000 m /zero glyphshow
38.496094 0.000000 m /one glyphshow
44.858398 0.000000 m /zero glyphshow
grestore
gsave
/o {
gsave
newpath
translate
0.8 setlinewidth
1 setlinejoin
0 setlinecap
0 0 m
0 -3.5 l

gsave
0.000 setgray
fill
grestore
stroke
grestore
} bind def
697.762 145.925 o
grestore
gsave
700.519353 59.643750 translate
90.000000 rotate
0.000000 0.000000 m /u glyphshow
6.337891 0.000000 m /s glyphshow
11.547852 0.000000 m /e glyphshow
17.700195 0.000000 m /r glyphshow
21.811523 0.000000 m /period glyphshow
24.990234 0.000000 m /m glyphshow
34.731445 0.000000 m /a glyphshow
40.859375 0.000000 m /x glyphshow
46.777344 0.000000 m /R glyphshow
53.725586 0.000000 m /a glyphshow
59.853516 0.000000 m /t glyphshow
63.774414 0.000000 m /i glyphshow
66.552734 0.000000 m /n glyphshow
72.890625 0.000000 m /g glyphshow
grestore
gsave
/o {
gsave
newpath
translate
0.8 setlinewidth
1 setlinejoin
0 setlinecap
0 0 m
0 -3.5 l

gsave
0.000 setgray
fill
grestore
stroke
grestore
} bind def
710.124 145.925 o
grestore
gsave
712.882124 93.003125 translate
90.000000 rotate
0.000000 0.000000 m /i glyphshow
2.778320 0.000000 m /t glyphshow
6.699219 0.000000 m /e glyphshow
12.851562 0.000000 m /m glyphshow
22.592773 0.000000 m /period glyphshow
25.771484 0.000000 m /W glyphshow
35.659180 0.000000 m /a glyphshow
41.787109 0.000000 m /r glyphshow
grestore
gsave
/o {
gsave
newpath
translate
0.8 setlinewidth
1 setlinejoin
0 setlinecap
0 0 m
0 -3.5 l

gsave
0.000 setgray
fill
grestore
stroke
grestore
} bind def
722.487 145.925 o
grestore
gsave
725.244896 87.690625 translate
90.000000 rotate
0.000000 0.000000 m /i glyphshow
2.778320 0.000000 m /t glyphshow
6.699219 0.000000 m /e glyphshow
12.851562 0.000000 m /m glyphshow
22.592773 0.000000 m /period glyphshow
25.771484 0.000000 m /one glyphshow
32.133789 0.000000 m /nine glyphshow
38.496094 0.000000 m /six glyphshow
44.858398 0.000000 m /zero glyphshow
grestore
gsave
/o {
gsave
newpath
translate
0.8 setlinewidth
1 setlinejoin
0 setlinecap
0 0 m
0 -3.5 l

gsave
0.000 setgray
fill
grestore
stroke
grestore
} bind def
734.85 145.925 o
grestore
gsave
737.607667 58.862500 translate
90.000000 rotate
0.000000 0.000000 m /i glyphshow
2.778320 0.000000 m /t glyphshow
6.699219 0.000000 m /e glyphshow
12.851562 0.000000 m /m glyphshow
22.592773 0.000000 m /period glyphshow
25.771484 0.000000 m /m glyphshow
35.512695 0.000000 m /a glyphshow
41.640625 0.000000 m /x glyphshow
47.558594 0.000000 m /R glyphshow
54.506836 0.000000 m /a glyphshow
60.634766 0.000000 m /t glyphshow
64.555664 0.000000 m /i glyphshow
67.333984 0.000000 m /n glyphshow
73.671875 0.000000 m /g glyphshow
grestore
gsave
/o {
gsave
newpath
translate
0.8 setlinewidth
1 setlinejoin
0 setlinecap
0 0 m
0 -3.5 l

gsave
0.000 setgray
fill
grestore
stroke
grestore
} bind def
747.213 145.925 o
grestore
gsave
749.970438 87.690625 translate
90.000000 rotate
0.000000 0.000000 m /i glyphshow
2.778320 0.000000 m /t glyphshow
6.699219 0.000000 m /e glyphshow
12.851562 0.000000 m /m glyphshow
22.592773 0.000000 m /period glyphshow
25.771484 0.000000 m /one glyphshow
32.133789 0.000000 m /nine glyphshow
38.496094 0.000000 m /five glyphshow
44.858398 0.000000 m /zero glyphshow
grestore
gsave
/o {
gsave
newpath
translate
0.8 setlinewidth
1 setlinejoin
0 setlinecap
0 0 m
0 -3.5 l

gsave
0.000 setgray
fill
grestore
stroke
grestore
} bind def
759.575 145.925 o
grestore
gsave
762.333210 61.784375 translate
90.000000 rotate
0.000000 0.000000 m /i glyphshow
2.778320 0.000000 m /t glyphshow
6.699219 0.000000 m /e glyphshow
12.851562 0.000000 m /m glyphshow
22.592773 0.000000 m /period glyphshow
25.771484 0.000000 m /m glyphshow
35.512695 0.000000 m /i glyphshow
38.291016 0.000000 m /n glyphshow
44.628906 0.000000 m /R glyphshow
51.577148 0.000000 m /a glyphshow
57.705078 0.000000 m /t glyphshow
61.625977 0.000000 m /i glyphshow
64.404297 0.000000 m /n glyphshow
70.742188 0.000000 m /g glyphshow
grestore
gsave
/o {
gsave
newpath
translate
0.8 setlinewidth
1 setlinejoin
0 setlinecap
0 0 m
0 -3.5 l

gsave
0.000 setgray
fill
grestore
stroke
grestore
} bind def
771.938 145.925 o
grestore
gsave
774.695981 87.690625 translate
90.000000 rotate
0.000000 0.000000 m /i glyphshow
2.778320 0.000000 m /t glyphshow
6.699219 0.000000 m /e glyphshow
12.851562 0.000000 m /m glyphshow
22.592773 0.000000 m /period glyphshow
25.771484 0.000000 m /one glyphshow
32.133789 0.000000 m /nine glyphshow
38.496094 0.000000 m /three glyphshow
44.858398 0.000000 m /zero glyphshow
grestore
gsave
/o {
gsave
newpath
translate
0.8 setlinewidth
1 setlinejoin
0 setlinecap
0 0 m
0 -3.5 l

gsave
0.000 setgray
fill
grestore
stroke
grestore
} bind def
784.301 145.925 o
grestore
1.000 0.000 0.000 setrgbcolor
gsave
787.058752 79.800000 translate
90.000000 rotate
0.000000 0.000000 m /u glyphshow
6.337891 0.000000 m /s glyphshow
11.547852 0.000000 m /e glyphshow
17.700195 0.000000 m /r glyphshow
21.811523 0.000000 m /period glyphshow
24.990234 0.000000 m /m glyphshow
34.731445 0.000000 m /l glyphshow
37.509766 0.000000 m /period glyphshow
40.688477 0.000000 m /a glyphshow
46.816406 0.000000 m /v glyphshow
52.734375 0.000000 m /g glyphshow
grestore
0.000 setgray
gsave
/o {
gsave
newpath
translate
0.8 setlinewidth
1 setlinejoin
0 setlinecap
0 0 m
0 -3.5 l

gsave
0.000 setgray
fill
grestore
stroke
grestore
} bind def
796.664 145.925 o
grestore
gsave
799.421524 87.690625 translate
90.000000 rotate
0.000000 0.000000 m /i glyphshow
2.778320 0.000000 m /t glyphshow
6.699219 0.000000 m /e glyphshow
12.851562 0.000000 m /m glyphshow
22.592773 0.000000 m /period glyphshow
25.771484 0.000000 m /one glyphshow
32.133789 0.000000 m /nine glyphshow
38.496094 0.000000 m /four glyphshow
44.858398 0.000000 m /zero glyphshow
grestore
gsave
/o {
gsave
newpath
translate
0.8 setlinewidth
1 setlinejoin
0 setlinecap
0 0 m
0 -3.5 l

gsave
0.000 setgray
fill
grestore
stroke
grestore
} bind def
809.026 145.925 o
grestore
gsave
811.784295 67.956250 translate
90.000000 rotate
0.000000 0.000000 m /i glyphshow
2.778320 0.000000 m /t glyphshow
6.699219 0.000000 m /e glyphshow
12.851562 0.000000 m /m glyphshow
22.592773 0.000000 m /period glyphshow
25.771484 0.000000 m /F glyphshow
31.523438 0.000000 m /i glyphshow
34.301758 0.000000 m /l glyphshow
37.080078 0.000000 m /m glyphshow
46.821289 0.000000 m /hyphen glyphshow
50.429688 0.000000 m /N glyphshow
57.910156 0.000000 m /o glyphshow
64.028320 0.000000 m /i glyphshow
66.806641 0.000000 m /r glyphshow
grestore
gsave
/o {
gsave
newpath
translate
0.8 setlinewidth
1 setlinejoin
0 setlinecap
0 0 m
-3.5 0 l

gsave
0.000 setgray
fill
grestore
stroke
grestore
} bind def
63.675 145.925 o
grestore
gsave
50.315625 142.128125 translate
0.000000 rotate
0.000000 0.000000 m /zero glyphshow
grestore
gsave
/o {
gsave
newpath
translate
0.8 setlinewidth
1 setlinejoin
0 setlinecap
0 0 m
-3.5 0 l

gsave
0.000 setgray
fill
grestore
stroke
grestore
} bind def
63.675 202.432 o
grestore
gsave
31.237500 198.635560 translate
0.000000 rotate
0.000000 0.000000 m /two glyphshow
6.362305 0.000000 m /zero glyphshow
12.724609 0.000000 m /zero glyphshow
19.086914 0.000000 m /zero glyphshow
grestore
gsave
/o {
gsave
newpath
translate
0.8 setlinewidth
1 setlinejoin
0 setlinecap
0 0 m
-3.5 0 l

gsave
0.000 setgray
fill
grestore
stroke
grestore
} bind def
63.675 258.94 o
grestore
gsave
31.237500 255.142994 translate
0.000000 rotate
0.000000 0.000000 m /four glyphshow
6.362305 0.000000 m /zero glyphshow
12.724609 0.000000 m /zero glyphshow
19.086914 0.000000 m /zero glyphshow
grestore
gsave
/o {
gsave
newpath
translate
0.8 setlinewidth
1 setlinejoin
0 setlinecap
0 0 m
-3.5 0 l

gsave
0.000 setgray
fill
grestore
stroke
grestore
} bind def
63.675 315.447 o
grestore
gsave
31.237500 311.650429 translate
0.000000 rotate
0.000000 0.000000 m /six glyphshow
6.362305 0.000000 m /zero glyphshow
12.724609 0.000000 m /zero glyphshow
19.086914 0.000000 m /zero glyphshow
grestore
gsave
/o {
gsave
newpath
translate
0.8 setlinewidth
1 setlinejoin
0 setlinecap
0 0 m
-3.5 0 l

gsave
0.000 setgray
fill
grestore
stroke
grestore
} bind def
63.675 371.955 o
grestore
gsave
31.237500 368.157863 translate
0.000000 rotate
0.000000 0.000000 m /eight glyphshow
6.362305 0.000000 m /zero glyphshow
12.724609 0.000000 m /zero glyphshow
19.086914 0.000000 m /zero glyphshow
grestore
gsave
/o {
gsave
newpath
translate
0.8 setlinewidth
1 setlinejoin
0 setlinecap
0 0 m
-3.5 0 l

gsave
0.000 setgray
fill
grestore
stroke
grestore
} bind def
63.675 428.462 o
grestore
gsave
24.878125 424.665298 translate
0.000000 rotate
0.000000 0.000000 m /one glyphshow
6.362305 0.000000 m /zero glyphshow
12.724609 0.000000 m /zero glyphshow
19.086914 0.000000 m /zero glyphshow
25.449219 0.000000 m /zero glyphshow
grestore
gsave
/o {
gsave
newpath
translate
0.8 setlinewidth
1 setlinejoin
0 setlinecap
0 0 m
-3.5 0 l

gsave
0.000 setgray
fill
grestore
stroke
grestore
} bind def
63.675 484.97 o
grestore
gsave
24.878125 481.172732 translate
0.000000 rotate
0.000000 0.000000 m /one glyphshow
6.362305 0.000000 m /two glyphshow
12.724609 0.000000 m /zero glyphshow
19.086914 0.000000 m /zero glyphshow
25.449219 0.000000 m /zero glyphshow
grestore
gsave
/o {
gsave
newpath
translate
0.8 setlinewidth
1 setlinejoin
0 setlinecap
0 0 m
-3.5 0 l

gsave
0.000 setgray
fill
grestore
stroke
grestore
} bind def
63.675 541.477 o
grestore
gsave
24.878125 537.680167 translate
0.000000 rotate
0.000000 0.000000 m /one glyphshow
6.362305 0.000000 m /four glyphshow
12.724609 0.000000 m /zero glyphshow
19.086914 0.000000 m /zero glyphshow
25.449219 0.000000 m /zero glyphshow
grestore
gsave
/o {
gsave
newpath
translate
0.8 setlinewidth
1 setlinejoin
0 setlinecap
0 0 m
-3.5 0 l

gsave
0.000 setgray
fill
grestore
stroke
grestore
} bind def
63.675 597.984 o
grestore
gsave
24.878125 594.187601 translate
0.000000 rotate
0.000000 0.000000 m /one glyphshow
6.362305 0.000000 m /six glyphshow
12.724609 0.000000 m /zero glyphshow
19.086914 0.000000 m /zero glyphshow
25.449219 0.000000 m /zero glyphshow
grestore
gsave
18.800000 371.578125 translate
90.000000 rotate
0.000000 0.000000 m /F glyphshow
5.751953 0.000000 m /hyphen glyphshow
9.360352 0.000000 m /s glyphshow
14.570312 0.000000 m /c glyphshow
20.068359 0.000000 m /o glyphshow
26.186523 0.000000 m /r glyphshow
30.297852 0.000000 m /e glyphshow
grestore
0 setlinejoin
2 setlinecap
[] 0 setdash
gsave
63.675 145.925 m
63.675 633.7 l
stroke
grestore
gsave
849.7 145.925 m
849.7 633.7 l
stroke
grestore
gsave
63.675 145.925 m
849.7 145.925 l
stroke
grestore
gsave
63.675 633.7 m
849.7 633.7 l
stroke
grestore

end
showpage
