%!PS-Adobe-3.0 EPSF-3.0
%%Title: ./tex/img/feature_importance_gr.eps
%%Creator: matplotlib version 3.0.2, http://matplotlib.org/
%%CreationDate: Fri Nov 30 00:30:28 2018
%%Orientation: portrait
%%BoundingBox: -126 72 738 720
%%EndComments
%%BeginProlog
/mpldict 8 dict def
mpldict begin
/m { moveto } bind def
/l { lineto } bind def
/r { rlineto } bind def
/c { curveto } bind def
/cl { closepath } bind def
/box {
m
1 index 0 r
0 exch r
neg 0 r
cl
} bind def
/clipbox {
box
clip
newpath
} bind def
%!PS-Adobe-3.0 Resource-Font
%%Title: DejaVu Sans
%%Copyright: Copyright (c) 2003 by Bitstream, Inc. All Rights Reserved. Copyright (c) 2006 by Tavmjong Bah. All Rights Reserved. DejaVu changes are in public domain 
%%Creator: Converted from TrueType to type 3 by PPR
25 dict begin
/_d{bind def}bind def
/_m{moveto}_d
/_l{lineto}_d
/_cl{closepath eofill}_d
/_c{curveto}_d
/_sc{7 -1 roll{setcachedevice}{pop pop pop pop pop pop}ifelse}_d
/_e{exec}_d
/FontName /DejaVuSans def
/PaintType 0 def
/FontMatrix[.001 0 0 .001 0 0]def
/FontBBox[-1021 -463 1793 1232]def
/FontType 3 def
/Encoding [ /hyphen /period /zero /one /two /three /four /five /six /seven /eight /nine /C /D /F /O /R /underscore /a /b /c /d /e /f /g /i /l /m /n /o /q /r /s /t /u /v /x ] def
/FontInfo 10 dict dup begin
/FamilyName (DejaVu Sans) def
/FullName (DejaVu Sans) def
/Notice (Copyright (c) 2003 by Bitstream, Inc. All Rights Reserved. Copyright (c) 2006 by Tavmjong Bah. All Rights Reserved. DejaVu changes are in public domain ) def
/Weight (Book) def
/Version (Version 2.35) def
/ItalicAngle 0.0 def
/isFixedPitch false def
/UnderlinePosition -130 def
/UnderlineThickness 90 def
end readonly def
/CharStrings 38 dict dup begin
/.notdef 0 def
/hyphen{361 0 49 234 312 314 _sc
49 314 _m
312 314 _l
312 234 _l
49 234 _l
49 314 _l
_cl}_d
/period{318 0 107 0 210 124 _sc
107 124 _m
210 124 _l
210 0 _l
107 0 _l
107 124 _l
_cl}_d
/zero{636 0 66 -13 570 742 _sc
318 664 _m
267 664 229 639 203 589 _c
177 539 165 464 165 364 _c
165 264 177 189 203 139 _c
229 89 267 64 318 64 _c
369 64 407 89 433 139 _c
458 189 471 264 471 364 _c
471 464 458 539 433 589 _c
407 639 369 664 318 664 _c
318 742 _m
399 742 461 709 505 645 _c
548 580 570 486 570 364 _c
570 241 548 147 505 83 _c
461 19 399 -13 318 -13 _c
236 -13 173 19 130 83 _c
87 147 66 241 66 364 _c
66 486 87 580 130 645 _c
173 709 236 742 318 742 _c
_cl}_d
/one{636 0 110 0 544 729 _sc
124 83 _m
285 83 _l
285 639 _l
110 604 _l
110 694 _l
284 729 _l
383 729 _l
383 83 _l
544 83 _l
544 0 _l
124 0 _l
124 83 _l
_cl}_d
/two{{636 0 73 0 536 742 _sc
192 83 _m
536 83 _l
536 0 _l
73 0 _l
73 83 _l
110 121 161 173 226 239 _c
290 304 331 346 348 365 _c
380 400 402 430 414 455 _c
426 479 433 504 433 528 _c
433 566 419 598 392 622 _c
365 646 330 659 286 659 _c
255 659 222 653 188 643 _c
154 632 117 616 78 594 _c
78 694 _l
118 710 155 722 189 730 _c
223 738 255 742 284 742 _c
}_e{359 742 419 723 464 685 _c
509 647 532 597 532 534 _c
532 504 526 475 515 449 _c
504 422 484 390 454 354 _c
446 344 420 317 376 272 _c
332 227 271 164 192 83 _c
_cl}_e}_d
/three{{636 0 76 -13 556 742 _sc
406 393 _m
453 383 490 362 516 330 _c
542 298 556 258 556 212 _c
556 140 531 84 482 45 _c
432 6 362 -13 271 -13 _c
240 -13 208 -10 176 -4 _c
144 1 110 10 76 22 _c
76 117 _l
103 101 133 89 166 81 _c
198 73 232 69 268 69 _c
330 69 377 81 409 105 _c
441 129 458 165 458 212 _c
458 254 443 288 413 312 _c
383 336 341 349 287 349 _c
}_e{202 349 _l
202 430 _l
291 430 _l
339 430 376 439 402 459 _c
428 478 441 506 441 543 _c
441 580 427 609 401 629 _c
374 649 336 659 287 659 _c
260 659 231 656 200 650 _c
169 644 135 635 98 623 _c
98 711 _l
135 721 170 729 203 734 _c
235 739 266 742 296 742 _c
370 742 429 725 473 691 _c
517 657 539 611 539 553 _c
539 513 527 479 504 451 _c
481 423 448 403 406 393 _c
_cl}_e}_d
/four{636 0 49 0 580 729 _sc
378 643 _m
129 254 _l
378 254 _l
378 643 _l
352 729 _m
476 729 _l
476 254 _l
580 254 _l
580 172 _l
476 172 _l
476 0 _l
378 0 _l
378 172 _l
49 172 _l
49 267 _l
352 729 _l
_cl}_d
/five{{636 0 77 -13 549 729 _sc
108 729 _m
495 729 _l
495 646 _l
198 646 _l
198 467 _l
212 472 227 476 241 478 _c
255 480 270 482 284 482 _c
365 482 429 459 477 415 _c
525 370 549 310 549 234 _c
549 155 524 94 475 51 _c
426 8 357 -13 269 -13 _c
238 -13 207 -10 175 -6 _c
143 -1 111 6 77 17 _c
77 116 _l
106 100 136 88 168 80 _c
199 72 232 69 267 69 _c
}_e{323 69 368 83 401 113 _c
433 143 450 183 450 234 _c
450 284 433 324 401 354 _c
368 384 323 399 267 399 _c
241 399 214 396 188 390 _c
162 384 135 375 108 363 _c
108 729 _l
_cl}_e}_d
/six{{636 0 70 -13 573 742 _sc
330 404 _m
286 404 251 388 225 358 _c
199 328 186 286 186 234 _c
186 181 199 139 225 109 _c
251 79 286 64 330 64 _c
374 64 409 79 435 109 _c
461 139 474 181 474 234 _c
474 286 461 328 435 358 _c
409 388 374 404 330 404 _c
526 713 _m
526 623 _l
501 635 476 644 451 650 _c
425 656 400 659 376 659 _c
310 659 260 637 226 593 _c
}_e{192 549 172 482 168 394 _c
187 422 211 444 240 459 _c
269 474 301 482 336 482 _c
409 482 467 459 509 415 _c
551 371 573 310 573 234 _c
573 159 550 99 506 54 _c
462 9 403 -13 330 -13 _c
246 -13 181 19 137 83 _c
92 147 70 241 70 364 _c
70 479 97 571 152 639 _c
206 707 280 742 372 742 _c
396 742 421 739 447 735 _c
472 730 498 723 526 713 _c
_cl}_e}_d
/seven{636 0 82 0 551 729 _sc
82 729 _m
551 729 _l
551 687 _l
286 0 _l
183 0 _l
432 646 _l
82 646 _l
82 729 _l
_cl}_d
/eight{{636 0 68 -13 568 742 _sc
318 346 _m
271 346 234 333 207 308 _c
180 283 167 249 167 205 _c
167 161 180 126 207 101 _c
234 76 271 64 318 64 _c
364 64 401 76 428 102 _c
455 127 469 161 469 205 _c
469 249 455 283 429 308 _c
402 333 365 346 318 346 _c
219 388 _m
177 398 144 418 120 447 _c
96 476 85 511 85 553 _c
85 611 105 657 147 691 _c
188 725 245 742 318 742 _c
}_e{390 742 447 725 489 691 _c
530 657 551 611 551 553 _c
551 511 539 476 515 447 _c
491 418 459 398 417 388 _c
464 377 501 355 528 323 _c
554 291 568 251 568 205 _c
568 134 546 80 503 43 _c
459 5 398 -13 318 -13 _c
237 -13 175 5 132 43 _c
89 80 68 134 68 205 _c
68 251 81 291 108 323 _c
134 355 171 377 219 388 _c
183 544 _m
183 506 194 476 218 455 _c
}_e{242 434 275 424 318 424 _c
360 424 393 434 417 455 _c
441 476 453 506 453 544 _c
453 582 441 611 417 632 _c
393 653 360 664 318 664 _c
275 664 242 653 218 632 _c
194 611 183 582 183 544 _c
_cl}_e}_d
/nine{{636 0 63 -13 566 742 _sc
110 15 _m
110 105 _l
134 93 159 84 185 78 _c
210 72 235 69 260 69 _c
324 69 374 90 408 134 _c
442 178 462 244 468 334 _c
448 306 424 284 396 269 _c
367 254 335 247 300 247 _c
226 247 168 269 126 313 _c
84 357 63 417 63 494 _c
63 568 85 628 129 674 _c
173 719 232 742 306 742 _c
390 742 455 709 499 645 _c
543 580 566 486 566 364 _c
}_e{566 248 538 157 484 89 _c
429 21 356 -13 264 -13 _c
239 -13 214 -10 189 -6 _c
163 -2 137 5 110 15 _c
306 324 _m
350 324 385 339 411 369 _c
437 399 450 441 450 494 _c
450 546 437 588 411 618 _c
385 648 350 664 306 664 _c
262 664 227 648 201 618 _c
175 588 162 546 162 494 _c
162 441 175 399 201 369 _c
227 339 262 324 306 324 _c
_cl}_e}_d
/C{{698 0 56 -13 644 742 _sc
644 673 _m
644 569 _l
610 599 575 622 537 638 _c
499 653 460 661 418 661 _c
334 661 270 635 226 584 _c
182 533 160 460 160 364 _c
160 268 182 194 226 143 _c
270 92 334 67 418 67 _c
460 67 499 74 537 90 _c
575 105 610 128 644 159 _c
644 56 _l
609 32 572 15 534 4 _c
496 -7 455 -13 412 -13 _c
302 -13 215 20 151 87 _c
}_e{87 154 56 246 56 364 _c
56 481 87 573 151 641 _c
215 708 302 742 412 742 _c
456 742 497 736 535 725 _c
573 713 610 696 644 673 _c
_cl}_e}_d
/D{770 0 98 0 711 729 _sc
197 648 _m
197 81 _l
316 81 _l
416 81 490 103 537 149 _c
583 195 607 267 607 365 _c
607 463 583 534 537 580 _c
490 625 416 648 316 648 _c
197 648 _l
98 729 _m
301 729 _l
442 729 546 699 612 641 _c
678 582 711 490 711 365 _c
711 239 677 147 611 88 _c
545 29 441 0 301 0 _c
98 0 _l
98 729 _l
_cl}_d
/F{575 0 98 0 517 729 _sc
98 729 _m
517 729 _l
517 646 _l
197 646 _l
197 431 _l
486 431 _l
486 348 _l
197 348 _l
197 0 _l
98 0 _l
98 729 _l
_cl}_d
/O{787 0 56 -13 731 742 _sc
394 662 _m
322 662 265 635 223 582 _c
181 528 160 456 160 364 _c
160 272 181 199 223 146 _c
265 92 322 66 394 66 _c
465 66 522 92 564 146 _c
606 199 627 272 627 364 _c
627 456 606 528 564 582 _c
522 635 465 662 394 662 _c
394 742 _m
496 742 577 707 639 639 _c
700 571 731 479 731 364 _c
731 248 700 157 639 89 _c
577 21 496 -13 394 -13 _c
291 -13 209 21 148 89 _c
86 157 56 248 56 364 _c
56 479 86 571 148 639 _c
209 707 291 742 394 742 _c
_cl}_d
/R{{695 0 98 0 666 729 _sc
444 342 _m
465 334 486 319 506 296 _c
526 272 546 240 566 199 _c
666 0 _l
560 0 _l
467 187 _l
443 235 419 268 397 284 _c
374 300 343 308 304 308 _c
197 308 _l
197 0 _l
98 0 _l
98 729 _l
321 729 _l
404 729 466 711 507 677 _c
548 642 569 589 569 519 _c
569 473 558 434 537 404 _c
515 374 484 353 444 342 _c
197 648 _m
197 389 _l
321 389 _l
}_e{368 389 404 400 428 422 _c
452 444 465 476 465 519 _c
465 561 452 593 428 615 _c
404 637 368 648 321 648 _c
197 648 _l
_cl}_e}_d
/underscore{500 0 -9 -235 510 -165 _sc
510 -165 _m
510 -235 _l
-9 -235 _l
-9 -165 _l
510 -165 _l
_cl}_d
/a{{613 0 60 -13 522 560 _sc
343 275 _m
270 275 220 266 192 250 _c
164 233 150 205 150 165 _c
150 133 160 107 181 89 _c
202 70 231 61 267 61 _c
317 61 357 78 387 114 _c
417 149 432 196 432 255 _c
432 275 _l
343 275 _l
522 312 _m
522 0 _l
432 0 _l
432 83 _l
411 49 385 25 355 10 _c
325 -5 287 -13 243 -13 _c
187 -13 142 2 109 33 _c
76 64 60 106 60 159 _c
}_e{60 220 80 266 122 298 _c
163 329 224 345 306 345 _c
432 345 _l
432 354 _l
432 395 418 427 391 450 _c
364 472 326 484 277 484 _c
245 484 215 480 185 472 _c
155 464 127 453 100 439 _c
100 522 _l
132 534 164 544 195 550 _c
226 556 256 560 286 560 _c
365 560 424 539 463 498 _c
502 457 522 395 522 312 _c
_cl}_e}_d
/b{{635 0 91 -13 580 760 _sc
487 273 _m
487 339 473 390 446 428 _c
418 466 381 485 334 485 _c
286 485 249 466 222 428 _c
194 390 181 339 181 273 _c
181 207 194 155 222 117 _c
249 79 286 61 334 61 _c
381 61 418 79 446 117 _c
473 155 487 207 487 273 _c
181 464 _m
199 496 223 520 252 536 _c
281 552 316 560 356 560 _c
422 560 476 533 518 481 _c
559 428 580 359 580 273 _c
}_e{580 187 559 117 518 65 _c
476 13 422 -13 356 -13 _c
316 -13 281 -5 252 10 _c
223 25 199 49 181 82 _c
181 0 _l
91 0 _l
91 760 _l
181 760 _l
181 464 _l
_cl}_e}_d
/c{{550 0 55 -13 488 560 _sc
488 526 _m
488 442 _l
462 456 437 466 411 473 _c
385 480 360 484 334 484 _c
276 484 230 465 198 428 _c
166 391 150 339 150 273 _c
150 206 166 154 198 117 _c
230 80 276 62 334 62 _c
360 62 385 65 411 72 _c
437 79 462 90 488 104 _c
488 21 _l
462 9 436 0 410 -5 _c
383 -10 354 -13 324 -13 _c
242 -13 176 12 128 64 _c
}_e{79 115 55 185 55 273 _c
55 362 79 432 128 483 _c
177 534 244 560 330 560 _c
358 560 385 557 411 551 _c
437 545 463 537 488 526 _c
_cl}_e}_d
/d{{635 0 55 -13 544 760 _sc
454 464 _m
454 760 _l
544 760 _l
544 0 _l
454 0 _l
454 82 _l
435 49 411 25 382 10 _c
353 -5 319 -13 279 -13 _c
213 -13 159 13 117 65 _c
75 117 55 187 55 273 _c
55 359 75 428 117 481 _c
159 533 213 560 279 560 _c
319 560 353 552 382 536 _c
411 520 435 496 454 464 _c
148 273 _m
148 207 161 155 188 117 _c
215 79 253 61 301 61 _c
}_e{348 61 385 79 413 117 _c
440 155 454 207 454 273 _c
454 339 440 390 413 428 _c
385 466 348 485 301 485 _c
253 485 215 466 188 428 _c
161 390 148 339 148 273 _c
_cl}_e}_d
/e{{615 0 55 -13 562 560 _sc
562 296 _m
562 252 _l
149 252 _l
153 190 171 142 205 110 _c
238 78 284 62 344 62 _c
378 62 412 66 444 74 _c
476 82 509 95 541 113 _c
541 28 _l
509 14 476 3 442 -3 _c
408 -9 373 -13 339 -13 _c
251 -13 182 12 131 62 _c
80 112 55 181 55 268 _c
55 357 79 428 127 481 _c
175 533 241 560 323 560 _c
397 560 455 536 498 489 _c
}_e{540 441 562 377 562 296 _c
472 322 _m
471 371 457 410 431 440 _c
404 469 368 484 324 484 _c
274 484 234 469 204 441 _c
174 413 156 373 152 322 _c
472 322 _l
_cl}_e}_d
/f{352 0 23 0 371 760 _sc
371 760 _m
371 685 _l
285 685 _l
253 685 230 678 218 665 _c
205 652 199 629 199 595 _c
199 547 _l
347 547 _l
347 477 _l
199 477 _l
199 0 _l
109 0 _l
109 477 _l
23 477 _l
23 547 _l
109 547 _l
109 585 _l
109 645 123 690 151 718 _c
179 746 224 760 286 760 _c
371 760 _l
_cl}_d
/g{{635 0 55 -207 544 560 _sc
454 280 _m
454 344 440 395 414 431 _c
387 467 349 485 301 485 _c
253 485 215 467 188 431 _c
161 395 148 344 148 280 _c
148 215 161 165 188 129 _c
215 93 253 75 301 75 _c
349 75 387 93 414 129 _c
440 165 454 215 454 280 _c
544 68 _m
544 -24 523 -93 482 -139 _c
440 -184 377 -207 292 -207 _c
260 -207 231 -204 203 -200 _c
175 -195 147 -188 121 -178 _c
}_e{121 -91 _l
147 -105 173 -115 199 -122 _c
225 -129 251 -133 278 -133 _c
336 -133 380 -117 410 -87 _c
439 -56 454 -10 454 52 _c
454 96 _l
435 64 411 40 382 24 _c
353 8 319 0 279 0 _c
211 0 157 25 116 76 _c
75 127 55 195 55 280 _c
55 364 75 432 116 483 _c
157 534 211 560 279 560 _c
319 560 353 552 382 536 _c
411 520 435 496 454 464 _c
454 547 _l
544 547 _l
}_e{544 68 _l
_cl}_e}_d
/i{278 0 94 0 184 760 _sc
94 547 _m
184 547 _l
184 0 _l
94 0 _l
94 547 _l
94 760 _m
184 760 _l
184 646 _l
94 646 _l
94 760 _l
_cl}_d
/l{278 0 94 0 184 760 _sc
94 760 _m
184 760 _l
184 0 _l
94 0 _l
94 760 _l
_cl}_d
/m{{974 0 91 0 889 560 _sc
520 442 _m
542 482 569 511 600 531 _c
631 550 668 560 711 560 _c
767 560 811 540 842 500 _c
873 460 889 403 889 330 _c
889 0 _l
799 0 _l
799 327 _l
799 379 789 418 771 444 _c
752 469 724 482 686 482 _c
639 482 602 466 575 435 _c
548 404 535 362 535 309 _c
535 0 _l
445 0 _l
445 327 _l
445 379 435 418 417 444 _c
398 469 369 482 331 482 _c
}_e{285 482 248 466 221 435 _c
194 404 181 362 181 309 _c
181 0 _l
91 0 _l
91 547 _l
181 547 _l
181 462 _l
201 495 226 520 255 536 _c
283 552 317 560 357 560 _c
397 560 430 550 458 530 _c
486 510 506 480 520 442 _c
_cl}_e}_d
/n{634 0 91 0 549 560 _sc
549 330 _m
549 0 _l
459 0 _l
459 327 _l
459 379 448 417 428 443 _c
408 469 378 482 338 482 _c
289 482 251 466 223 435 _c
195 404 181 362 181 309 _c
181 0 _l
91 0 _l
91 547 _l
181 547 _l
181 462 _l
202 494 227 519 257 535 _c
286 551 320 560 358 560 _c
420 560 468 540 500 501 _c
532 462 549 405 549 330 _c
_cl}_d
/o{612 0 55 -13 557 560 _sc
306 484 _m
258 484 220 465 192 427 _c
164 389 150 338 150 273 _c
150 207 163 156 191 118 _c
219 80 257 62 306 62 _c
354 62 392 80 420 118 _c
448 156 462 207 462 273 _c
462 337 448 389 420 427 _c
392 465 354 484 306 484 _c
306 560 _m
384 560 445 534 490 484 _c
534 433 557 363 557 273 _c
557 183 534 113 490 63 _c
445 12 384 -13 306 -13 _c
227 -13 165 12 121 63 _c
77 113 55 183 55 273 _c
55 363 77 433 121 484 _c
165 534 227 560 306 560 _c
_cl}_d
/q{{635 0 55 -207 544 560 _sc
148 273 _m
148 207 161 155 188 117 _c
215 79 253 61 301 61 _c
348 61 385 79 413 117 _c
440 155 454 207 454 273 _c
454 339 440 390 413 428 _c
385 466 348 485 301 485 _c
253 485 215 466 188 428 _c
161 390 148 339 148 273 _c
454 82 _m
435 49 411 25 382 10 _c
353 -5 319 -13 279 -13 _c
213 -13 159 13 117 65 _c
75 117 55 187 55 273 _c
}_e{55 359 75 428 117 481 _c
159 533 213 560 279 560 _c
319 560 353 552 382 536 _c
411 520 435 496 454 464 _c
454 547 _l
544 547 _l
544 -207 _l
454 -207 _l
454 82 _l
_cl}_e}_d
/r{411 0 91 0 411 560 _sc
411 463 _m
401 469 390 473 378 476 _c
366 478 353 480 339 480 _c
288 480 249 463 222 430 _c
194 397 181 350 181 288 _c
181 0 _l
91 0 _l
91 547 _l
181 547 _l
181 462 _l
199 495 224 520 254 536 _c
284 552 321 560 365 560 _c
371 560 378 559 386 559 _c
393 558 401 557 411 555 _c
411 463 _l
_cl}_d
/s{{521 0 54 -13 472 560 _sc
443 531 _m
443 446 _l
417 458 391 468 364 475 _c
336 481 308 485 279 485 _c
234 485 200 478 178 464 _c
156 450 145 430 145 403 _c
145 382 153 366 169 354 _c
185 342 217 330 265 320 _c
296 313 _l
360 299 405 279 432 255 _c
458 230 472 195 472 151 _c
472 100 452 60 412 31 _c
372 1 316 -13 246 -13 _c
216 -13 186 -10 154 -5 _c
}_e{122 0 89 8 54 20 _c
54 113 _l
87 95 120 82 152 74 _c
184 65 216 61 248 61 _c
290 61 323 68 346 82 _c
368 96 380 117 380 144 _c
380 168 371 187 355 200 _c
339 213 303 226 247 238 _c
216 245 _l
160 257 119 275 95 299 _c
70 323 58 356 58 399 _c
58 450 76 490 112 518 _c
148 546 200 560 268 560 _c
301 560 332 557 362 552 _c
391 547 418 540 443 531 _c
}_e{_cl}_e}_d
/t{392 0 27 0 368 702 _sc
183 702 _m
183 547 _l
368 547 _l
368 477 _l
183 477 _l
183 180 _l
183 135 189 106 201 94 _c
213 81 238 75 276 75 _c
368 75 _l
368 0 _l
276 0 _l
206 0 158 13 132 39 _c
106 65 93 112 93 180 _c
93 477 _l
27 477 _l
27 547 _l
93 547 _l
93 702 _l
183 702 _l
_cl}_d
/u{634 0 85 -13 543 560 _sc
85 216 _m
85 547 _l
175 547 _l
175 219 _l
175 167 185 129 205 103 _c
225 77 255 64 296 64 _c
344 64 383 79 411 110 _c
439 141 453 183 453 237 _c
453 547 _l
543 547 _l
543 0 _l
453 0 _l
453 84 _l
431 50 405 26 377 10 _c
348 -5 315 -13 277 -13 _c
214 -13 166 6 134 45 _c
101 83 85 140 85 216 _c
311 560 _m
311 560 _l
_cl}_d
/v{592 0 30 0 562 547 _sc
30 547 _m
125 547 _l
296 88 _l
467 547 _l
562 547 _l
357 0 _l
235 0 _l
30 547 _l
_cl}_d
/x{592 0 29 0 559 547 _sc
549 547 _m
351 281 _l
559 0 _l
453 0 _l
294 215 _l
135 0 _l
29 0 _l
241 286 _l
47 547 _l
153 547 _l
298 352 _l
443 547 _l
549 547 _l
_cl}_d
end readonly def

/BuildGlyph
 {exch begin
 CharStrings exch
 2 copy known not{pop /.notdef}if
 true 3 1 roll get exec
 end}_d

/BuildChar {
 1 index /Encoding get exch get
 1 index /BuildGlyph get exec
}_d

FontName currentdict end definefont pop
end
%%EndProlog
mpldict begin
-126 72 translate
864 648 0 0 clipbox
gsave
0 0 m
864 0 l
864 648 l
0 648 l
cl
1.000 setgray
fill
grestore
gsave
70.31 215.26 m
845.28 215.26 l
845.28 629.28 l
70.31 629.28 l
cl
1.000 setgray
fill
grestore
gsave
775 414 70.31 215.3 clipbox
105.535909 215.26 m
125.809814 215.26 l
125.809814 609.564762 l
105.535909 609.564762 l
cl
0.122 0.467 0.706 setrgbcolor
fill
grestore
gsave
775 414 70.31 215.3 clipbox
130.87829 215.26 m
151.152194 215.26 l
151.152194 588.281266 l
130.87829 588.281266 l
cl
0.122 0.467 0.706 setrgbcolor
fill
grestore
gsave
775 414 70.31 215.3 clipbox
156.22067 215.26 m
176.494575 215.26 l
176.494575 528.351423 l
156.22067 528.351423 l
cl
0.122 0.467 0.706 setrgbcolor
fill
grestore
gsave
775 414 70.31 215.3 clipbox
181.563051 215.26 m
201.836956 215.26 l
201.836956 497.546364 l
181.563051 497.546364 l
cl
0.122 0.467 0.706 setrgbcolor
fill
grestore
gsave
775 414 70.31 215.3 clipbox
206.905432 215.26 m
227.179336 215.26 l
227.179336 456.099556 l
206.905432 456.099556 l
cl
0.122 0.467 0.706 setrgbcolor
fill
grestore
gsave
775 414 70.31 215.3 clipbox
232.247812 215.26 m
252.521717 215.26 l
252.521717 426.414681 l
232.247812 426.414681 l
cl
0.122 0.467 0.706 setrgbcolor
fill
grestore
gsave
775 414 70.31 215.3 clipbox
257.590193 215.26 m
277.864097 215.26 l
277.864097 419.693577 l
257.590193 419.693577 l
cl
0.122 0.467 0.706 setrgbcolor
fill
grestore
gsave
775 414 70.31 215.3 clipbox
282.932574 215.26 m
303.206478 215.26 l
303.206478 397.289897 l
282.932574 397.289897 l
cl
0.122 0.467 0.706 setrgbcolor
fill
grestore
gsave
775 414 70.31 215.3 clipbox
308.274954 215.26 m
328.548859 215.26 l
328.548859 382.167413 l
308.274954 382.167413 l
cl
0.122 0.467 0.706 setrgbcolor
fill
grestore
gsave
775 414 70.31 215.3 clipbox
333.617335 215.26 m
353.891239 215.26 l
353.891239 377.126585 l
333.617335 377.126585 l
cl
0.122 0.467 0.706 setrgbcolor
fill
grestore
gsave
775 414 70.31 215.3 clipbox
358.959716 215.26 m
379.23362 215.26 l
379.23362 370.405482 l
358.959716 370.405482 l
cl
0.122 0.467 0.706 setrgbcolor
fill
grestore
gsave
775 414 70.31 215.3 clipbox
384.302096 215.26 m
404.576001 215.26 l
404.576001 364.804562 l
384.302096 364.804562 l
cl
0.122 0.467 0.706 setrgbcolor
fill
grestore
gsave
775 414 70.31 215.3 clipbox
409.644477 215.26 m
429.918381 215.26 l
429.918381 350.802262 l
409.644477 350.802262 l
cl
0.122 0.467 0.706 setrgbcolor
fill
grestore
gsave
775 414 70.31 215.3 clipbox
434.986857 215.26 m
455.260762 215.26 l
455.260762 350.24217 l
434.986857 350.24217 l
cl
0.122 0.467 0.706 setrgbcolor
fill
grestore
gsave
775 414 70.31 215.3 clipbox
460.329238 215.26 m
480.603143 215.26 l
480.603143 345.201342 l
460.329238 345.201342 l
cl
0.122 0.467 0.706 setrgbcolor
fill
grestore
gsave
775 414 70.31 215.3 clipbox
485.671619 215.26 m
505.945523 215.26 l
505.945523 333.999502 l
485.671619 333.999502 l
cl
0.122 0.467 0.706 setrgbcolor
fill
grestore
gsave
775 414 70.31 215.3 clipbox
511.013999 215.26 m
531.287904 215.26 l
531.287904 318.877018 l
511.013999 318.877018 l
cl
0.122 0.467 0.706 setrgbcolor
fill
grestore
gsave
775 414 70.31 215.3 clipbox
536.35638 215.26 m
556.630284 215.26 l
556.630284 311.035731 l
536.35638 311.035731 l
cl
0.122 0.467 0.706 setrgbcolor
fill
grestore
gsave
775 414 70.31 215.3 clipbox
561.698761 215.26 m
581.972665 215.26 l
581.972665 297.033431 l
561.698761 297.033431 l
cl
0.122 0.467 0.706 setrgbcolor
fill
grestore
gsave
775 414 70.31 215.3 clipbox
587.041141 215.26 m
607.315046 215.26 l
607.315046 284.711407 l
587.041141 284.711407 l
cl
0.122 0.467 0.706 setrgbcolor
fill
grestore
gsave
775 414 70.31 215.3 clipbox
612.383522 215.26 m
632.657426 215.26 l
632.657426 251.665979 l
612.383522 251.665979 l
cl
0.122 0.467 0.706 setrgbcolor
fill
grestore
gsave
775 414 70.31 215.3 clipbox
637.725903 215.26 m
657.999807 215.26 l
657.999807 247.745335 l
637.725903 247.745335 l
cl
0.122 0.467 0.706 setrgbcolor
fill
grestore
gsave
775 414 70.31 215.3 clipbox
663.068283 215.26 m
683.342188 215.26 l
683.342188 243.824692 l
663.068283 243.824692 l
cl
0.122 0.467 0.706 setrgbcolor
fill
grestore
gsave
775 414 70.31 215.3 clipbox
688.410664 215.26 m
708.684568 215.26 l
708.684568 227.582024 l
688.410664 227.582024 l
cl
0.122 0.467 0.706 setrgbcolor
fill
grestore
gsave
775 414 70.31 215.3 clipbox
713.753044 215.26 m
734.026949 215.26 l
734.026949 226.46184 l
713.753044 226.46184 l
cl
0.122 0.467 0.706 setrgbcolor
fill
grestore
gsave
775 414 70.31 215.3 clipbox
739.095425 215.26 m
759.36933 215.26 l
759.36933 225.901748 l
739.095425 225.901748 l
cl
0.122 0.467 0.706 setrgbcolor
fill
grestore
gsave
775 414 70.31 215.3 clipbox
764.437806 215.26 m
784.71171 215.26 l
784.71171 224.221472 l
764.437806 224.221472 l
cl
0.122 0.467 0.706 setrgbcolor
fill
grestore
gsave
775 414 70.31 215.3 clipbox
789.780186 215.26 m
810.054091 215.26 l
810.054091 218.06046 l
789.780186 218.06046 l
cl
0.122 0.467 0.706 setrgbcolor
fill
grestore
0.800 setlinewidth
1 setlinejoin
0 setlinecap
[] 0 setdash
0.000 setgray
gsave
/o {
gsave
newpath
translate
0.8 setlinewidth
1 setlinejoin
0 setlinecap
0 0 m
0 -3.5 l

gsave
0.000 setgray
fill
grestore
stroke
grestore
} bind def
115.673 215.26 o
grestore
1.000 0.000 0.000 setrgbcolor
/DejaVuSans findfont
15.000 scalefont
setfont
gsave
119.602549 111.135000 translate
90.000000 rotate
0.000000 0.000000 m /i glyphshow
4.167480 0.000000 m /t glyphshow
10.048828 0.000000 m /e glyphshow
19.277344 0.000000 m /m glyphshow
33.889160 0.000000 m /period glyphshow
38.657227 0.000000 m /m glyphshow
53.269043 0.000000 m /a glyphshow
62.460938 0.000000 m /x glyphshow
71.337891 0.000000 m /underscore glyphshow
78.837891 0.000000 m /i glyphshow
83.005371 0.000000 m /t glyphshow
88.886719 0.000000 m /c glyphshow
grestore
0.000 setgray
gsave
/o {
gsave
newpath
translate
0.8 setlinewidth
1 setlinejoin
0 setlinecap
0 0 m
0 -3.5 l

gsave
0.000 setgray
fill
grestore
stroke
grestore
} bind def
141.015 215.26 o
grestore
1.000 0.000 0.000 setrgbcolor
gsave
144.944929 120.603750 translate
90.000000 rotate
0.000000 0.000000 m /i glyphshow
4.167480 0.000000 m /t glyphshow
10.048828 0.000000 m /e glyphshow
19.277344 0.000000 m /m glyphshow
33.889160 0.000000 m /period glyphshow
38.657227 0.000000 m /s glyphshow
46.472168 0.000000 m /t glyphshow
52.353516 0.000000 m /d glyphshow
61.875000 0.000000 m /underscore glyphshow
69.375000 0.000000 m /i glyphshow
73.542480 0.000000 m /t glyphshow
79.423828 0.000000 m /c glyphshow
grestore
0.000 setgray
gsave
/o {
gsave
newpath
translate
0.8 setlinewidth
1 setlinejoin
0 setlinecap
0 0 m
0 -3.5 l

gsave
0.000 setgray
fill
grestore
stroke
grestore
} bind def
166.358 215.26 o
grestore
1.000 0.000 0.000 setrgbcolor
gsave
170.287310 101.260000 translate
90.000000 rotate
0.000000 0.000000 m /i glyphshow
4.167480 0.000000 m /t glyphshow
10.048828 0.000000 m /e glyphshow
19.277344 0.000000 m /m glyphshow
33.889160 0.000000 m /period glyphshow
38.657227 0.000000 m /m glyphshow
53.269043 0.000000 m /e glyphshow
62.497559 0.000000 m /a glyphshow
71.689453 0.000000 m /n glyphshow
81.196289 0.000000 m /underscore glyphshow
88.696289 0.000000 m /i glyphshow
92.863770 0.000000 m /t glyphshow
98.745117 0.000000 m /c glyphshow
grestore
0.000 setgray
gsave
/o {
gsave
newpath
translate
0.8 setlinewidth
1 setlinejoin
0 setlinecap
0 0 m
0 -3.5 l

gsave
0.000 setgray
fill
grestore
stroke
grestore
} bind def
191.7 215.26 o
grestore
gsave
195.832816 103.056875 translate
90.000000 rotate
0.000000 0.000000 m /u glyphshow
9.506836 0.000000 m /s glyphshow
17.321777 0.000000 m /e glyphshow
26.550293 0.000000 m /r glyphshow
32.701660 0.000000 m /period glyphshow
37.469727 0.000000 m /n glyphshow
46.976562 0.000000 m /b glyphshow
56.498047 0.000000 m /R glyphshow
66.920410 0.000000 m /a glyphshow
76.112305 0.000000 m /t glyphshow
81.993652 0.000000 m /i glyphshow
86.161133 0.000000 m /n glyphshow
95.667969 0.000000 m /g glyphshow
grestore
gsave
/o {
gsave
newpath
translate
0.8 setlinewidth
1 setlinejoin
0 setlinecap
0 0 m
0 -3.5 l

gsave
0.000 setgray
fill
grestore
stroke
grestore
} bind def
217.042 215.26 o
grestore
1.000 0.000 0.000 setrgbcolor
gsave
221.175196 77.478750 translate
90.000000 rotate
0.000000 0.000000 m /i glyphshow
4.167480 0.000000 m /t glyphshow
10.048828 0.000000 m /e glyphshow
19.277344 0.000000 m /m glyphshow
33.889160 0.000000 m /period glyphshow
38.657227 0.000000 m /m glyphshow
53.269043 0.000000 m /l glyphshow
57.436523 0.000000 m /period glyphshow
62.204590 0.000000 m /b glyphshow
71.726074 0.000000 m /a glyphshow
80.917969 0.000000 m /l glyphshow
85.085449 0.000000 m /a glyphshow
94.277344 0.000000 m /n glyphshow
103.784180 0.000000 m /c glyphshow
112.031250 0.000000 m /e glyphshow
121.259766 0.000000 m /d glyphshow
grestore
0.000 setgray
gsave
/o {
gsave
newpath
translate
0.8 setlinewidth
1 setlinejoin
0 setlinecap
0 0 m
0 -3.5 l

gsave
0.000 setgray
fill
grestore
stroke
grestore
} bind def
242.385 215.26 o
grestore
1.000 0.000 0.000 setrgbcolor
gsave
246.517577 16.447500 translate
90.000000 rotate
0.000000 0.000000 m /i glyphshow
4.167480 0.000000 m /t glyphshow
10.048828 0.000000 m /e glyphshow
19.277344 0.000000 m /m glyphshow
33.889160 0.000000 m /period glyphshow
38.657227 0.000000 m /m glyphshow
53.269043 0.000000 m /l glyphshow
57.436523 0.000000 m /period glyphshow
62.204590 0.000000 m /f glyphshow
67.485352 0.000000 m /r glyphshow
73.652344 0.000000 m /a glyphshow
82.844238 0.000000 m /c glyphshow
91.091309 0.000000 m /t glyphshow
96.972656 0.000000 m /i glyphshow
101.140137 0.000000 m /o glyphshow
110.317383 0.000000 m /n glyphshow
119.824219 0.000000 m /O glyphshow
131.630859 0.000000 m /f glyphshow
136.911621 0.000000 m /C glyphshow
147.385254 0.000000 m /l glyphshow
151.552734 0.000000 m /i glyphshow
155.720215 0.000000 m /q glyphshow
165.241699 0.000000 m /u glyphshow
174.748535 0.000000 m /e glyphshow
183.977051 0.000000 m /s glyphshow
grestore
0.000 setgray
gsave
/o {
gsave
newpath
translate
0.8 setlinewidth
1 setlinejoin
0 setlinecap
0 0 m
0 -3.5 l

gsave
0.000 setgray
fill
grestore
stroke
grestore
} bind def
267.727 215.26 o
grestore
1.000 0.000 0.000 setrgbcolor
gsave
271.859958 53.322500 translate
90.000000 rotate
0.000000 0.000000 m /i glyphshow
4.167480 0.000000 m /t glyphshow
10.048828 0.000000 m /e glyphshow
19.277344 0.000000 m /m glyphshow
33.889160 0.000000 m /period glyphshow
38.657227 0.000000 m /m glyphshow
53.269043 0.000000 m /l glyphshow
57.436523 0.000000 m /period glyphshow
62.204590 0.000000 m /a glyphshow
71.396484 0.000000 m /v glyphshow
80.273438 0.000000 m /g glyphshow
89.794922 0.000000 m /D glyphshow
101.345215 0.000000 m /u glyphshow
110.852051 0.000000 m /r glyphshow
117.019043 0.000000 m /a glyphshow
126.210938 0.000000 m /t glyphshow
132.092285 0.000000 m /i glyphshow
136.259766 0.000000 m /o glyphshow
145.437012 0.000000 m /n glyphshow
grestore
0.000 setgray
gsave
/o {
gsave
newpath
translate
0.8 setlinewidth
1 setlinejoin
0 setlinecap
0 0 m
0 -3.5 l

gsave
0.000 setgray
fill
grestore
stroke
grestore
} bind def
293.07 215.26 o
grestore
1.000 0.000 0.000 setrgbcolor
gsave
297.202338 78.650625 translate
90.000000 rotate
0.000000 0.000000 m /u glyphshow
9.506836 0.000000 m /s glyphshow
17.321777 0.000000 m /e glyphshow
26.550293 0.000000 m /r glyphshow
32.701660 0.000000 m /period glyphshow
37.469727 0.000000 m /m glyphshow
52.081543 0.000000 m /l glyphshow
56.249023 0.000000 m /period glyphshow
61.017090 0.000000 m /b glyphshow
70.538574 0.000000 m /a glyphshow
79.730469 0.000000 m /l glyphshow
83.897949 0.000000 m /a glyphshow
93.089844 0.000000 m /n glyphshow
102.596680 0.000000 m /c glyphshow
110.843750 0.000000 m /e glyphshow
120.072266 0.000000 m /d glyphshow
grestore
0.000 setgray
gsave
/o {
gsave
newpath
translate
0.8 setlinewidth
1 setlinejoin
0 setlinecap
0 0 m
0 -3.5 l

gsave
0.000 setgray
fill
grestore
stroke
grestore
} bind def
318.412 215.26 o
grestore
1.000 0.000 0.000 setrgbcolor
gsave
322.544719 119.650625 translate
90.000000 rotate
0.000000 0.000000 m /u glyphshow
9.506836 0.000000 m /s glyphshow
17.321777 0.000000 m /e glyphshow
26.550293 0.000000 m /r glyphshow
32.701660 0.000000 m /period glyphshow
37.469727 0.000000 m /m glyphshow
52.081543 0.000000 m /l glyphshow
56.249023 0.000000 m /period glyphshow
61.017090 0.000000 m /a glyphshow
70.208984 0.000000 m /v glyphshow
79.085938 0.000000 m /g glyphshow
grestore
0.000 setgray
gsave
/o {
gsave
newpath
translate
0.8 setlinewidth
1 setlinejoin
0 setlinecap
0 0 m
0 -3.5 l

gsave
0.000 setgray
fill
grestore
stroke
grestore
} bind def
343.754 215.26 o
grestore
1.000 0.000 0.000 setrgbcolor
gsave
347.683975 112.306875 translate
90.000000 rotate
0.000000 0.000000 m /u glyphshow
9.506836 0.000000 m /s glyphshow
17.321777 0.000000 m /e glyphshow
26.550293 0.000000 m /r glyphshow
32.701660 0.000000 m /period glyphshow
37.469727 0.000000 m /m glyphshow
52.081543 0.000000 m /a glyphshow
61.273438 0.000000 m /x glyphshow
70.150391 0.000000 m /underscore glyphshow
77.650391 0.000000 m /i glyphshow
81.817871 0.000000 m /t glyphshow
87.699219 0.000000 m /c glyphshow
grestore
0.000 setgray
gsave
/o {
gsave
newpath
translate
0.8 setlinewidth
1 setlinejoin
0 setlinecap
0 0 m
0 -3.5 l

gsave
0.000 setgray
fill
grestore
stroke
grestore
} bind def
369.097 215.26 o
grestore
1.000 0.000 0.000 setrgbcolor
gsave
373.229480 54.494375 translate
90.000000 rotate
0.000000 0.000000 m /u glyphshow
9.506836 0.000000 m /s glyphshow
17.321777 0.000000 m /e glyphshow
26.550293 0.000000 m /r glyphshow
32.701660 0.000000 m /period glyphshow
37.469727 0.000000 m /m glyphshow
52.081543 0.000000 m /l glyphshow
56.249023 0.000000 m /period glyphshow
61.017090 0.000000 m /a glyphshow
70.208984 0.000000 m /v glyphshow
79.085938 0.000000 m /g glyphshow
88.607422 0.000000 m /D glyphshow
100.157715 0.000000 m /u glyphshow
109.664551 0.000000 m /r glyphshow
115.831543 0.000000 m /a glyphshow
125.023438 0.000000 m /t glyphshow
130.904785 0.000000 m /i glyphshow
135.072266 0.000000 m /o glyphshow
144.249512 0.000000 m /n glyphshow
grestore
0.000 setgray
gsave
/o {
gsave
newpath
translate
0.8 setlinewidth
1 setlinejoin
0 setlinecap
0 0 m
0 -3.5 l

gsave
0.000 setgray
fill
grestore
stroke
grestore
} bind def
394.439 215.26 o
grestore
gsave
398.571861 92.619375 translate
90.000000 rotate
0.000000 0.000000 m /i glyphshow
4.167480 0.000000 m /t glyphshow
10.048828 0.000000 m /e glyphshow
19.277344 0.000000 m /m glyphshow
33.889160 0.000000 m /period glyphshow
38.657227 0.000000 m /m glyphshow
53.269043 0.000000 m /i glyphshow
57.436523 0.000000 m /n glyphshow
66.943359 0.000000 m /R glyphshow
77.365723 0.000000 m /a glyphshow
86.557617 0.000000 m /t glyphshow
92.438965 0.000000 m /i glyphshow
96.606445 0.000000 m /n glyphshow
106.113281 0.000000 m /g glyphshow
grestore
gsave
/o {
gsave
newpath
translate
0.8 setlinewidth
1 setlinejoin
0 setlinecap
0 0 m
0 -3.5 l

gsave
0.000 setgray
fill
grestore
stroke
grestore
} bind def
419.781 215.26 o
grestore
1.000 0.000 0.000 setrgbcolor
gsave
423.914242 114.556875 translate
90.000000 rotate
0.000000 0.000000 m /u glyphshow
9.506836 0.000000 m /s glyphshow
17.321777 0.000000 m /e glyphshow
26.550293 0.000000 m /r glyphshow
32.701660 0.000000 m /period glyphshow
37.469727 0.000000 m /m glyphshow
52.081543 0.000000 m /l glyphshow
56.249023 0.000000 m /period glyphshow
61.017090 0.000000 m /m glyphshow
75.628906 0.000000 m /a glyphshow
84.820801 0.000000 m /x glyphshow
grestore
0.000 setgray
gsave
/o {
gsave
newpath
translate
0.8 setlinewidth
1 setlinejoin
0 setlinecap
0 0 m
0 -3.5 l

gsave
0.000 setgray
fill
grestore
stroke
grestore
} bind def
445.124 215.26 o
grestore
gsave
449.256622 101.885000 translate
90.000000 rotate
0.000000 0.000000 m /i glyphshow
4.167480 0.000000 m /t glyphshow
10.048828 0.000000 m /e glyphshow
19.277344 0.000000 m /m glyphshow
33.889160 0.000000 m /period glyphshow
38.657227 0.000000 m /n glyphshow
48.164062 0.000000 m /b glyphshow
57.685547 0.000000 m /R glyphshow
68.107910 0.000000 m /a glyphshow
77.299805 0.000000 m /t glyphshow
83.181152 0.000000 m /i glyphshow
87.348633 0.000000 m /n glyphshow
96.855469 0.000000 m /g glyphshow
grestore
gsave
/o {
gsave
newpath
translate
0.8 setlinewidth
1 setlinejoin
0 setlinecap
0 0 m
0 -3.5 l

gsave
0.000 setgray
fill
grestore
stroke
grestore
} bind def
470.466 215.26 o
grestore
1.000 0.000 0.000 setrgbcolor
gsave
474.395878 102.431875 translate
90.000000 rotate
0.000000 0.000000 m /u glyphshow
9.506836 0.000000 m /s glyphshow
17.321777 0.000000 m /e glyphshow
26.550293 0.000000 m /r glyphshow
32.701660 0.000000 m /period glyphshow
37.469727 0.000000 m /m glyphshow
52.081543 0.000000 m /e glyphshow
61.310059 0.000000 m /a glyphshow
70.501953 0.000000 m /n glyphshow
80.008789 0.000000 m /underscore glyphshow
87.508789 0.000000 m /i glyphshow
91.676270 0.000000 m /t glyphshow
97.557617 0.000000 m /c glyphshow
grestore
0.000 setgray
gsave
/o {
gsave
newpath
translate
0.8 setlinewidth
1 setlinejoin
0 setlinecap
0 0 m
0 -3.5 l

gsave
0.000 setgray
fill
grestore
stroke
grestore
} bind def
495.809 215.26 o
grestore
1.000 0.000 0.000 setrgbcolor
gsave
499.738258 121.775625 translate
90.000000 rotate
0.000000 0.000000 m /u glyphshow
9.506836 0.000000 m /s glyphshow
17.321777 0.000000 m /e glyphshow
26.550293 0.000000 m /r glyphshow
32.701660 0.000000 m /period glyphshow
37.469727 0.000000 m /s glyphshow
45.284668 0.000000 m /t glyphshow
51.166016 0.000000 m /d glyphshow
60.687500 0.000000 m /underscore glyphshow
68.187500 0.000000 m /i glyphshow
72.354980 0.000000 m /t glyphshow
78.236328 0.000000 m /c glyphshow
grestore
0.000 setgray
gsave
/o {
gsave
newpath
translate
0.8 setlinewidth
1 setlinejoin
0 setlinecap
0 0 m
0 -3.5 l

gsave
0.000 setgray
fill
grestore
stroke
grestore
} bind def
521.151 215.26 o
grestore
1.000 0.000 0.000 setrgbcolor
gsave
525.283764 17.619375 translate
90.000000 rotate
0.000000 0.000000 m /u glyphshow
9.506836 0.000000 m /s glyphshow
17.321777 0.000000 m /e glyphshow
26.550293 0.000000 m /r glyphshow
32.701660 0.000000 m /period glyphshow
37.469727 0.000000 m /m glyphshow
52.081543 0.000000 m /l glyphshow
56.249023 0.000000 m /period glyphshow
61.017090 0.000000 m /f glyphshow
66.297852 0.000000 m /r glyphshow
72.464844 0.000000 m /a glyphshow
81.656738 0.000000 m /c glyphshow
89.903809 0.000000 m /t glyphshow
95.785156 0.000000 m /i glyphshow
99.952637 0.000000 m /o glyphshow
109.129883 0.000000 m /n glyphshow
118.636719 0.000000 m /O glyphshow
130.443359 0.000000 m /f glyphshow
135.724121 0.000000 m /C glyphshow
146.197754 0.000000 m /l glyphshow
150.365234 0.000000 m /i glyphshow
154.532715 0.000000 m /q glyphshow
164.054199 0.000000 m /u glyphshow
173.561035 0.000000 m /e glyphshow
182.789551 0.000000 m /s glyphshow
grestore
0.000 setgray
gsave
/o {
gsave
newpath
translate
0.8 setlinewidth
1 setlinejoin
0 setlinecap
0 0 m
0 -3.5 l

gsave
0.000 setgray
fill
grestore
stroke
grestore
} bind def
546.493 215.26 o
grestore
gsave
550.626145 93.791250 translate
90.000000 rotate
0.000000 0.000000 m /u glyphshow
9.506836 0.000000 m /s glyphshow
17.321777 0.000000 m /e glyphshow
26.550293 0.000000 m /r glyphshow
32.701660 0.000000 m /period glyphshow
37.469727 0.000000 m /m glyphshow
52.081543 0.000000 m /i glyphshow
56.249023 0.000000 m /n glyphshow
65.755859 0.000000 m /R glyphshow
76.178223 0.000000 m /a glyphshow
85.370117 0.000000 m /t glyphshow
91.251465 0.000000 m /i glyphshow
95.418945 0.000000 m /n glyphshow
104.925781 0.000000 m /g glyphshow
grestore
gsave
/o {
gsave
newpath
translate
0.8 setlinewidth
1 setlinejoin
0 setlinecap
0 0 m
0 -3.5 l

gsave
0.000 setgray
fill
grestore
stroke
grestore
} bind def
571.836 215.26 o
grestore
gsave
575.968525 88.244375 translate
90.000000 rotate
0.000000 0.000000 m /i glyphshow
4.167480 0.000000 m /t glyphshow
10.048828 0.000000 m /e glyphshow
19.277344 0.000000 m /m glyphshow
33.889160 0.000000 m /period glyphshow
38.657227 0.000000 m /m glyphshow
53.269043 0.000000 m /a glyphshow
62.460938 0.000000 m /x glyphshow
71.337891 0.000000 m /R glyphshow
81.760254 0.000000 m /a glyphshow
90.952148 0.000000 m /t glyphshow
96.833496 0.000000 m /i glyphshow
101.000977 0.000000 m /n glyphshow
110.507812 0.000000 m /g glyphshow
grestore
gsave
/o {
gsave
newpath
translate
0.8 setlinewidth
1 setlinejoin
0 setlinecap
0 0 m
0 -3.5 l

gsave
0.000 setgray
fill
grestore
stroke
grestore
} bind def
597.178 215.26 o
grestore
1.000 0.000 0.000 setrgbcolor
gsave
601.310906 113.385000 translate
90.000000 rotate
0.000000 0.000000 m /i glyphshow
4.167480 0.000000 m /t glyphshow
10.048828 0.000000 m /e glyphshow
19.277344 0.000000 m /m glyphshow
33.889160 0.000000 m /period glyphshow
38.657227 0.000000 m /m glyphshow
53.269043 0.000000 m /l glyphshow
57.436523 0.000000 m /period glyphshow
62.204590 0.000000 m /m glyphshow
76.816406 0.000000 m /a glyphshow
86.008301 0.000000 m /x glyphshow
grestore
0.000 setgray
gsave
/o {
gsave
newpath
translate
0.8 setlinewidth
1 setlinejoin
0 setlinecap
0 0 m
0 -3.5 l

gsave
0.000 setgray
fill
grestore
stroke
grestore
} bind def
622.52 215.26 o
grestore
gsave
626.653287 89.416250 translate
90.000000 rotate
0.000000 0.000000 m /u glyphshow
9.506836 0.000000 m /s glyphshow
17.321777 0.000000 m /e glyphshow
26.550293 0.000000 m /r glyphshow
32.701660 0.000000 m /period glyphshow
37.469727 0.000000 m /m glyphshow
52.081543 0.000000 m /a glyphshow
61.273438 0.000000 m /x glyphshow
70.150391 0.000000 m /R glyphshow
80.572754 0.000000 m /a glyphshow
89.764648 0.000000 m /t glyphshow
95.645996 0.000000 m /i glyphshow
99.813477 0.000000 m /n glyphshow
109.320312 0.000000 m /g glyphshow
grestore
gsave
/o {
gsave
newpath
translate
0.8 setlinewidth
1 setlinejoin
0 setlinecap
0 0 m
0 -3.5 l

gsave
0.000 setgray
fill
grestore
stroke
grestore
} bind def
647.863 215.26 o
grestore
gsave
651.995667 131.416250 translate
90.000000 rotate
0.000000 0.000000 m /i glyphshow
4.167480 0.000000 m /t glyphshow
10.048828 0.000000 m /e glyphshow
19.277344 0.000000 m /m glyphshow
33.889160 0.000000 m /period glyphshow
38.657227 0.000000 m /two glyphshow
48.200684 0.000000 m /zero glyphshow
57.744141 0.000000 m /zero glyphshow
67.287598 0.000000 m /zero glyphshow
grestore
gsave
/o {
gsave
newpath
translate
0.8 setlinewidth
1 setlinejoin
0 setlinecap
0 0 m
0 -3.5 l

gsave
0.000 setgray
fill
grestore
stroke
grestore
} bind def
673.205 215.26 o
grestore
1.000 0.000 0.000 setrgbcolor
gsave
677.338048 118.478750 translate
90.000000 rotate
0.000000 0.000000 m /i glyphshow
4.167480 0.000000 m /t glyphshow
10.048828 0.000000 m /e glyphshow
19.277344 0.000000 m /m glyphshow
33.889160 0.000000 m /period glyphshow
38.657227 0.000000 m /m glyphshow
53.269043 0.000000 m /l glyphshow
57.436523 0.000000 m /period glyphshow
62.204590 0.000000 m /a glyphshow
71.396484 0.000000 m /v glyphshow
80.273438 0.000000 m /g glyphshow
grestore
0.000 setgray
gsave
/o {
gsave
newpath
translate
0.8 setlinewidth
1 setlinejoin
0 setlinecap
0 0 m
0 -3.5 l

gsave
0.000 setgray
fill
grestore
stroke
grestore
} bind def
698.548 215.26 o
grestore
gsave
702.680429 160.056875 translate
90.000000 rotate
0.000000 0.000000 m /i glyphshow
4.167480 0.000000 m /t glyphshow
10.048828 0.000000 m /e glyphshow
19.277344 0.000000 m /m glyphshow
33.889160 0.000000 m /period glyphshow
38.657227 0.000000 m /zero glyphshow
grestore
gsave
/o {
gsave
newpath
translate
0.8 setlinewidth
1 setlinejoin
0 setlinecap
0 0 m
0 -3.5 l

gsave
0.000 setgray
fill
grestore
stroke
grestore
} bind def
723.89 215.26 o
grestore
gsave
728.022809 131.416250 translate
90.000000 rotate
0.000000 0.000000 m /i glyphshow
4.167480 0.000000 m /t glyphshow
10.048828 0.000000 m /e glyphshow
19.277344 0.000000 m /m glyphshow
33.889160 0.000000 m /period glyphshow
38.657227 0.000000 m /one glyphshow
48.200684 0.000000 m /nine glyphshow
57.744141 0.000000 m /eight glyphshow
67.287598 0.000000 m /zero glyphshow
grestore
gsave
/o {
gsave
newpath
translate
0.8 setlinewidth
1 setlinejoin
0 setlinecap
0 0 m
0 -3.5 l

gsave
0.000 setgray
fill
grestore
stroke
grestore
} bind def
749.232 215.26 o
grestore
gsave
753.365190 131.416250 translate
90.000000 rotate
0.000000 0.000000 m /i glyphshow
4.167480 0.000000 m /t glyphshow
10.048828 0.000000 m /e glyphshow
19.277344 0.000000 m /m glyphshow
33.889160 0.000000 m /period glyphshow
38.657227 0.000000 m /one glyphshow
48.200684 0.000000 m /nine glyphshow
57.744141 0.000000 m /nine glyphshow
67.287598 0.000000 m /zero glyphshow
grestore
gsave
/o {
gsave
newpath
translate
0.8 setlinewidth
1 setlinejoin
0 setlinecap
0 0 m
0 -3.5 l

gsave
0.000 setgray
fill
grestore
stroke
grestore
} bind def
774.575 215.26 o
grestore
gsave
778.707571 131.416250 translate
90.000000 rotate
0.000000 0.000000 m /i glyphshow
4.167480 0.000000 m /t glyphshow
10.048828 0.000000 m /e glyphshow
19.277344 0.000000 m /m glyphshow
33.889160 0.000000 m /period glyphshow
38.657227 0.000000 m /one glyphshow
48.200684 0.000000 m /nine glyphshow
57.744141 0.000000 m /seven glyphshow
67.287598 0.000000 m /zero glyphshow
grestore
gsave
/o {
gsave
newpath
translate
0.8 setlinewidth
1 setlinejoin
0 setlinecap
0 0 m
0 -3.5 l

gsave
0.000 setgray
fill
grestore
stroke
grestore
} bind def
799.917 215.26 o
grestore
gsave
804.049951 131.416250 translate
90.000000 rotate
0.000000 0.000000 m /i glyphshow
4.167480 0.000000 m /t glyphshow
10.048828 0.000000 m /e glyphshow
19.277344 0.000000 m /m glyphshow
33.889160 0.000000 m /period glyphshow
38.657227 0.000000 m /two glyphshow
48.200684 0.000000 m /zero glyphshow
57.744141 0.000000 m /one glyphshow
67.287598 0.000000 m /zero glyphshow
grestore
gsave
/o {
gsave
newpath
translate
0.8 setlinewidth
1 setlinejoin
0 setlinecap
0 0 m
-3.5 0 l

gsave
0.000 setgray
fill
grestore
stroke
grestore
} bind def
70.31 215.26 o
grestore
gsave
53.763125 209.564687 translate
0.000000 rotate
0.000000 0.000000 m /zero glyphshow
grestore
gsave
/o {
gsave
newpath
translate
0.8 setlinewidth
1 setlinejoin
0 setlinecap
0 0 m
-3.5 0 l

gsave
0.000 setgray
fill
grestore
stroke
grestore
} bind def
70.31 271.269 o
grestore
gsave
34.669375 265.573887 translate
0.000000 rotate
0.000000 0.000000 m /one glyphshow
9.543457 0.000000 m /zero glyphshow
19.086914 0.000000 m /zero glyphshow
grestore
gsave
/o {
gsave
newpath
translate
0.8 setlinewidth
1 setlinejoin
0 setlinecap
0 0 m
-3.5 0 l

gsave
0.000 setgray
fill
grestore
stroke
grestore
} bind def
70.31 327.278 o
grestore
gsave
34.669375 321.583086 translate
0.000000 rotate
0.000000 0.000000 m /two glyphshow
9.543457 0.000000 m /zero glyphshow
19.086914 0.000000 m /zero glyphshow
grestore
gsave
/o {
gsave
newpath
translate
0.8 setlinewidth
1 setlinejoin
0 setlinecap
0 0 m
-3.5 0 l

gsave
0.000 setgray
fill
grestore
stroke
grestore
} bind def
70.31 383.288 o
grestore
gsave
34.669375 377.592285 translate
0.000000 rotate
0.000000 0.000000 m /three glyphshow
9.543457 0.000000 m /zero glyphshow
19.086914 0.000000 m /zero glyphshow
grestore
gsave
/o {
gsave
newpath
translate
0.8 setlinewidth
1 setlinejoin
0 setlinecap
0 0 m
-3.5 0 l

gsave
0.000 setgray
fill
grestore
stroke
grestore
} bind def
70.31 439.297 o
grestore
gsave
34.669375 433.601484 translate
0.000000 rotate
0.000000 0.000000 m /four glyphshow
9.543457 0.000000 m /zero glyphshow
19.086914 0.000000 m /zero glyphshow
grestore
gsave
/o {
gsave
newpath
translate
0.8 setlinewidth
1 setlinejoin
0 setlinecap
0 0 m
-3.5 0 l

gsave
0.000 setgray
fill
grestore
stroke
grestore
} bind def
70.31 495.306 o
grestore
gsave
34.669375 489.610683 translate
0.000000 rotate
0.000000 0.000000 m /five glyphshow
9.543457 0.000000 m /zero glyphshow
19.086914 0.000000 m /zero glyphshow
grestore
gsave
/o {
gsave
newpath
translate
0.8 setlinewidth
1 setlinejoin
0 setlinecap
0 0 m
-3.5 0 l

gsave
0.000 setgray
fill
grestore
stroke
grestore
} bind def
70.31 551.315 o
grestore
gsave
34.669375 545.619882 translate
0.000000 rotate
0.000000 0.000000 m /six glyphshow
9.543457 0.000000 m /zero glyphshow
19.086914 0.000000 m /zero glyphshow
grestore
gsave
/o {
gsave
newpath
translate
0.8 setlinewidth
1 setlinejoin
0 setlinecap
0 0 m
-3.5 0 l

gsave
0.000 setgray
fill
grestore
stroke
grestore
} bind def
70.31 607.324 o
grestore
gsave
34.669375 601.629081 translate
0.000000 rotate
0.000000 0.000000 m /seven glyphshow
9.543457 0.000000 m /zero glyphshow
19.086914 0.000000 m /zero glyphshow
grestore
gsave
27.544375 394.934062 translate
90.000000 rotate
0.000000 0.000000 m /F glyphshow
8.627930 0.000000 m /hyphen glyphshow
14.040527 0.000000 m /s glyphshow
21.855469 0.000000 m /c glyphshow
30.102539 0.000000 m /o glyphshow
39.279785 0.000000 m /r glyphshow
45.446777 0.000000 m /e glyphshow
grestore
0 setlinejoin
2 setlinecap
[] 0 setdash
gsave
70.31 215.26 m
70.31 629.28 l
stroke
grestore
gsave
845.28 215.26 m
845.28 629.28 l
stroke
grestore
gsave
70.31 215.26 m
845.28 215.26 l
stroke
grestore
gsave
70.31 629.28 m
845.28 629.28 l
stroke
grestore

end
showpage
